@startuml TOS-PLP-PDP-LOGIN-AND-SHOP-FLOW
actor User
collections tmobile as "t-mobile.com" order 10
participant Hapi order 20
collections MyTMO as "my.t-mobile.com" order 30
participant EUI order 40

center header
<font size=32>Login and Shop from PLP/PDP</font>
endheader

note left User : Unauthenticated User

note left tmobile #lightgrey
For this example, customer is already on one of the
https://www.t-mobile.com PLPs/PDPs.
end note

alt "non-cookied customer"
User -[#red]-> tmobile: Clicks on //**Login**// link on UNAV on PLP OR //**Add to Cart**// CTA on PDP
tmobile -> MyTMO: Navigates to: [[https://my.t-mobile.com/login.html?dest=https://www.t-mobile.com/cell-phones https://my.t-mobile.com/login.html?dest=https://www.t-mobile.com/cell-phones]]
alt "tablets"
User -[#red]-> tmobile: Clicks on //**Click to Call**// CTA
tmobile -> tmobile: Click to Call
end
else "cookied/authenticated customer"
alt "add to cart CTA"
User -[#red]-> tmobile: Clicks on //**Add to Cart**// CTA
alt "standalone accessories"
tmobile -> MyTMO: Navigates to: [[https://my.t-mobile.com/shop/review-cart.html https://my.t-mobile.com/shop/review-cart.html]]
else "smart watches"
tmobile -> MyTMO: Navigates to: [[https://my.t-mobile.com/purchase/watchplan https://my.t-mobile.com/purchase/watchplan]]
end
else "click to call CTA"
alt "tablets"
User -[#red]-> tmobile: Clicks on //**Click to Call**// CTA
tmobile -> tmobile: Click to Call
end
else "cell-phones"
alt "upgrade CTA"
User -[#red]-> tmobile: Clicks on //**Upgrade**// CTA
tmobile -> MyTMO: Navigates to: [[https://my.t-mobile.com/purchase/shop https://my.t-mobile.com/purchase/shop]]
else "AAL CTA"
User -[#red]-> tmobile: Clicks on //**AAL**// CTA
tmobile -> MyTMO: Navigates to: [[https://my.t-mobile.com/purchase/plan https://my.t-mobile.com/purchase/plan]]
end
end
end
alt "non-cookied customer"
tmobile <-- MyTMO: Redirects to EUI Login Page [[https://account.t-mobile.com https://account.t-mobile.com]]
tmobile -> EUI: Navigates to EUI Login Page
tmobile <-- EUI: Redirects to MyTMO after successful authentication and passes a code
tmobile -> MyTMO: Navigates to MyTMO [[https://my.t-mobile.com?code=XXXXXXX https://my.t-mobile.com?code=XXXXXXX]]
MyTMO -> MyTMO: Runs login validations and creates MyTMO session
end
alt "non-cookied customer"
alt "login from UNAV OR "Add to Cart""
tmobile <-- MyTMO: Redirects to [[https://www.t-mobile.com/cell-phones https://www.t-mobile.com/cell-phones]]
tmobile -> Hapi: Navigates to [[https://www.t-mobile.com/cell-phones https://www.t-mobile.com/cell-phones]]
Hapi -> MyTMO: [[POST]] Get Credentials
Hapi <-- MyTMO: CredentialsResponse \n(authenticated JWT and profile information)

tmobile <-- Hapi: Returns [[https://www.t-mobile.com/cell-phones PLP]]/[[https://www.t-mobile.com/cell-phone/apple-iphone-11 PDP]] page respectively \nwith logged in products information
note left tmobile #magenta
reloads with base customer
crp pricing, promotions etc.
end note
end
else "cookied/authenticated customer"
alt "Add to Cart CTA"
alt "accessories"
MyTMO -> MyTMO: Redirects to: [[https://my.t-mobile.com/shop/review-cart.html https://my.t-mobile.com/shop/review-cart.html]]
else "smart watches"
MyTMO -> MyTMO: Redirects to: [[https://my.t-mobile.com/purchase/plan https://my.t-mobile.com/purchase/plan]]
end
else "cell-phones"
alt "upgrade CTA"
MyTMO -> MyTMO: Redirects to: [[https://my.t-mobile.com/purchase/shop https://my.t-mobile.com/purchase/shop]]
note right MyTMO #LightGreen
eventually redirects to: [[https://my.t-mobile.com/purchase/shop line-selector]] based upon //**tmo2mytmo**// cookie
end note
else "AAL CTA"
MyTMO -> MyTMO: Redirects to: [[https://my.t-mobile.com/purchase/device-intent https://my.t-mobile.com/purchase/device-intent]]
end
end
end

@enduml
