@startuml TOS-PLP-PDP
actor User
participant Browser
participant Hapi
participant EOS
participant Apigee
participant DCD
participant MW

center header
<font size=32>PLP/PDP Browsing</font>
endheader

User -> Browser: Navigates to https://www.t-mobile.com/cell-phones

Activate Hapi
Browser -> Hapi: /cell-phones
Hapi -> Apigee: [[POST]] /oauth2/v4/tokens
Hapi <-- Apigee: returns JWT token
Hapi -> Apigee: [[POST]] /commerce/v3/tokens
Apigee -> DCD: [[POST]] /commerce/v3/tokens [[https://bitbucket.service.edp.t-mobile.com/projects/EITCODEDOC/repos/flow-documentation/browse/swagger/ce.dsg.dcp/v3.1/Authentication_Swagger.json swagger]]
Apigee <-- DCD: Register token response
Hapi <-- Apigee: Register token response
alt if uncookied customer, assume credit class A
Hapi -> Apigee: [[POST]] /commerce/v3/profiles/{profileId}/credit-profiles (creditClass A)
else cookied customer, use credit class from cookie
Hapi -> Apigee: [[POST]] /commerce/v3/profiles/{profileId}/credit-profiles (creditClass from cookie)
end
Hapi -> Apigee: [[POST]] /commerce/v3/profiles/{profileId}/accounts
Apigee -> DCD: [[POST]] /commerce/v3/profiles/{profileId}/credit-profiles [[https://bitbucket.service.edp.t-mobile.com/projects/EITCODEDOC/repos/flow-documentation/browse/swagger/ce.dsg.dcp/v3.1/Profile_Swagger.json swagger]]
Apigee -> DCD: [[POST]] /commerce/v3/profiles/{profileId}/accounts [[https://bitbucket.service.edp.t-mobile.com/projects/EITCODEDOC/repos/flow-documentation/browse/swagger/ce.dsg.dcp/v3.1/Profile_Swagger.json swagger]]
Apigee <-- DCD: Credit profile response
Apigee <-- DCD: Accounts response
Hapi <-- Apigee: Credit profile response
Hapi <-- Apigee: Accounts response
Hapi -> Apigee: [[POST]] /commerce/v3/products
Apigee -> DCD: [[POST]] /commerce/v3/products [[https://bitbucket.service.edp.t-mobile.com/projects/EITCODEDOC/repos/flow-documentation/browse/swagger/ce.dsg.dcp/v3.1/Products_Swagger.json swagger]]
Apigee <-- DCD: V3 products response
Hapi <-- Apigee: V3 products response
Browser <-- Hapi: /cell-phones html page\n returned
Deactivate Hapi

User -> Browser: Clicks on a phone tile on PLP to navigate to PDP

Activate Hapi
Browser -> Browser: Route change to \n/cell-phone/apple-iphone-11
Browser -> Hapi: [[POST]] /api/product-family
Hapi -> Apigee: [[POST]] /commerce/v3/products
Apigee -> DCD: [[POST]] /commerce/v3/products [[https://bitbucket.service.edp.t-mobile.com/projects/EITCODEDOC/repos/flow-documentation/browse/swagger/ce.dsg.dcp/v3.1/Products_Swagger.json swagger]]
Apigee <-- DCD: V3 product response
Hapi <-- Apigee: V3 product response
alt if AUTHENTICATED
Hapi --> EOS: [[POST]] EOS /aal/v1/eligibility request [[https://bitbucket.corporate.t-mobile.com/projects/EOS/repos/eos-swagger-definitions/browse/eos-aal-eligibility-api.yaml swagger]]
Hapi <-- EOS: [[POST]] EOS /aal/v1/eligibility response
end
Browser <-- Hapi: V3 product response
Browser --> Browser: /cell-phone/apple-iphone-11\n html page rendered
Deactivate Hapi

@enduml
