<?xml version="1.0" encoding="UTF-8" standalone="no"?><svg xmlns="http://www.w3.org/2000/svg" xmlns:xlink="http://www.w3.org/1999/xlink" contentScriptType="application/ecmascript" contentStyleType="text/css" height="1845px" preserveAspectRatio="none" style="width:1778px;height:1845px;" version="1.1" viewBox="0 0 1778 1845" width="1778px" zoomAndPan="magnify"><defs><filter height="300%" id="f1vdkhlfiinww4" width="300%" x="-1" y="-1"><feGaussianBlur result="blurOut" stdDeviation="2.0"/><feColorMatrix in="blurOut" result="blurOut2" type="matrix" values="0 0 0 0 0 0 0 0 0 0 0 0 0 0 0 0 0 0 .4 0"/><feOffset dx="4.0" dy="4.0" in="blurOut2" result="blurOut3"/><feBlend in="SourceGraphic" in2="blurOut3" mode="normal"/></filter></defs><g><rect fill="#FFFFFF" filter="url(#f1vdkhlfiinww4)" height="655.6758" style="stroke: #000000; stroke-width: 2.0;" width="1244" x="124" y="238.1074"/><rect fill="#FFFFFF" filter="url(#f1vdkhlfiinww4)" height="88.9316" style="stroke: #000000; stroke-width: 2.0;" width="563.5" x="144" y="321.0391"/><rect fill="#FFFFFF" height="476.8125" style="stroke: none; stroke-width: 1.0;" width="1244" x="124" y="416.9707"/><rect fill="#FFFFFF" filter="url(#f1vdkhlfiinww4)" height="447.8574" style="stroke: #000000; stroke-width: 2.0;" width="1224" x="134" y="438.9258"/><rect fill="#FFFFFF" filter="url(#f1vdkhlfiinww4)" height="90.8867" style="stroke: #000000; stroke-width: 2.0;" width="804" x="544" y="492.5469"/><rect fill="#FFFFFF" height="44.2656" style="stroke: none; stroke-width: 1.0;" width="804" x="544" y="539.168"/><rect fill="#FFFFFF" height="117.8867" style="stroke: none; stroke-width: 1.0;" width="1224" x="134" y="590.4336"/><rect fill="#FFFFFF" filter="url(#f1vdkhlfiinww4)" height="88.9316" style="stroke: #000000; stroke-width: 2.0;" width="563.5" x="144" y="612.3887"/><rect fill="#FFFFFF" height="178.4629" style="stroke: none; stroke-width: 1.0;" width="1224" x="134" y="708.3203"/><rect fill="#FFFFFF" filter="url(#f1vdkhlfiinww4)" height="149.5078" style="stroke: #000000; stroke-width: 2.0;" width="1204" x="144" y="730.2754"/><rect fill="#FFFFFF" height="73.5762" style="stroke: none; stroke-width: 1.0;" width="1204" x="144" y="806.207"/><rect fill="#FFFFFF" filter="url(#f1vdkhlfiinww4)" height="176.8633" style="stroke: #000000; stroke-width: 2.0;" width="1168.5" x="544" y="907.7832"/><rect fill="#FFFFFF" filter="url(#f1vdkhlfiinww4)" height="642.7207" style="stroke: #000000; stroke-width: 2.0;" width="1381" x="385" y="1098.6465"/><rect fill="#FFFFFF" filter="url(#f1vdkhlfiinww4)" height="249.1055" style="stroke: #000000; stroke-width: 2.0;" width="953" x="395" y="1122.957"/><rect fill="#FFFFFF" height="362.3047" style="stroke: none; stroke-width: 1.0;" width="1381" x="385" y="1379.0625"/><rect fill="#FFFFFF" filter="url(#f1vdkhlfiinww4)" height="333.3496" style="stroke: #000000; stroke-width: 2.0;" width="577" x="1179" y="1401.0176"/><rect fill="#FFFFFF" filter="url(#f1vdkhlfiinww4)" height="116.8867" style="stroke: #000000; stroke-width: 2.0;" width="492.5" x="1189" y="1425.3281"/><rect fill="#FFFFFF" height="57.2656" style="stroke: none; stroke-width: 1.0;" width="492.5" x="1189" y="1484.9492"/><rect fill="#FFFFFF" height="185.1523" style="stroke: none; stroke-width: 1.0;" width="577" x="1179" y="1549.2148"/><rect fill="#FFFFFF" filter="url(#f1vdkhlfiinww4)" height="156.1973" style="stroke: #000000; stroke-width: 2.0;" width="557" x="1189" y="1571.1699"/><rect fill="#FFFFFF" height="57.2656" style="stroke: none; stroke-width: 1.0;" width="557" x="1189" y="1670.1016"/><line style="stroke: #A80036; stroke-width: 1.0; stroke-dasharray: 5.0,5.0;" x1="172" x2="172" y1="127.1758" y2="1758.3672"/><line style="stroke: #A80036; stroke-width: 1.0; stroke-dasharray: 5.0,5.0;" x1="611" x2="611" y1="127.1758" y2="1758.3672"/><line style="stroke: #A80036; stroke-width: 1.0; stroke-dasharray: 5.0,5.0;" x1="973" x2="973" y1="127.1758" y2="1758.3672"/><line style="stroke: #A80036; stroke-width: 1.0; stroke-dasharray: 5.0,5.0;" x1="1268" x2="1268" y1="127.1758" y2="1758.3672"/><line style="stroke: #A80036; stroke-width: 1.0; stroke-dasharray: 5.0,5.0;" x1="1682.5" x2="1682.5" y1="127.1758" y2="1758.3672"/><text fill="#000000" font-family="sans-serif" font-size="14" lengthAdjust="spacingAndGlyphs" textLength="31" x="154" y="124.2227">User</text><ellipse cx="172.5" cy="53.6875" fill="#FEFECE" filter="url(#f1vdkhlfiinww4)" rx="8" ry="8" style="stroke: #A80036; stroke-width: 2.0;"/><path d="M172.5,61.6875 L172.5,88.6875 M159.5,69.6875 L185.5,69.6875 M172.5,88.6875 L159.5,103.6875 M172.5,88.6875 L185.5,103.6875 " fill="none" filter="url(#f1vdkhlfiinww4)" style="stroke: #A80036; stroke-width: 2.0;"/><text fill="#000000" font-family="sans-serif" font-size="14" lengthAdjust="spacingAndGlyphs" textLength="31" x="154" y="1770.9023">User</text><ellipse cx="172.5" cy="1783.8555" fill="#FEFECE" filter="url(#f1vdkhlfiinww4)" rx="8" ry="8" style="stroke: #A80036; stroke-width: 2.0;"/><path d="M172.5,1791.8555 L172.5,1818.8555 M159.5,1799.8555 L185.5,1799.8555 M172.5,1818.8555 L159.5,1833.8555 M172.5,1818.8555 L185.5,1833.8555 " fill="none" filter="url(#f1vdkhlfiinww4)" style="stroke: #A80036; stroke-width: 2.0;"/><rect fill="#FEFECE" filter="url(#f1vdkhlfiinww4)" height="30.4883" style="stroke: #A80036; stroke-width: 1.5;" width="107" x="558" y="87.6875"/><rect fill="#FEFECE" filter="url(#f1vdkhlfiinww4)" height="30.4883" style="stroke: #A80036; stroke-width: 1.5;" width="107" x="554" y="91.6875"/><text fill="#000000" font-family="sans-serif" font-size="14" lengthAdjust="spacingAndGlyphs" textLength="93" x="561" y="112.2227">t-mobile.com</text><rect fill="#FEFECE" filter="url(#f1vdkhlfiinww4)" height="30.4883" style="stroke: #A80036; stroke-width: 1.5;" width="107" x="558" y="1757.3672"/><rect fill="#FEFECE" filter="url(#f1vdkhlfiinww4)" height="30.4883" style="stroke: #A80036; stroke-width: 1.5;" width="107" x="554" y="1761.3672"/><text fill="#000000" font-family="sans-serif" font-size="14" lengthAdjust="spacingAndGlyphs" textLength="93" x="561" y="1781.9023">t-mobile.com</text><rect fill="#FEFECE" filter="url(#f1vdkhlfiinww4)" height="30.4883" style="stroke: #A80036; stroke-width: 1.5;" width="45" x="949" y="91.6875"/><text fill="#000000" font-family="sans-serif" font-size="14" lengthAdjust="spacingAndGlyphs" textLength="31" x="956" y="112.2227">Hapi</text><rect fill="#FEFECE" filter="url(#f1vdkhlfiinww4)" height="30.4883" style="stroke: #A80036; stroke-width: 1.5;" width="45" x="949" y="1757.3672"/><text fill="#000000" font-family="sans-serif" font-size="14" lengthAdjust="spacingAndGlyphs" textLength="31" x="956" y="1777.9023">Hapi</text><rect fill="#FEFECE" filter="url(#f1vdkhlfiinww4)" height="30.4883" style="stroke: #A80036; stroke-width: 1.5;" width="131" x="1203" y="87.6875"/><rect fill="#FEFECE" filter="url(#f1vdkhlfiinww4)" height="30.4883" style="stroke: #A80036; stroke-width: 1.5;" width="131" x="1199" y="91.6875"/><text fill="#000000" font-family="sans-serif" font-size="14" lengthAdjust="spacingAndGlyphs" textLength="117" x="1206" y="112.2227">my.t-mobile.com</text><rect fill="#FEFECE" filter="url(#f1vdkhlfiinww4)" height="30.4883" style="stroke: #A80036; stroke-width: 1.5;" width="131" x="1203" y="1757.3672"/><rect fill="#FEFECE" filter="url(#f1vdkhlfiinww4)" height="30.4883" style="stroke: #A80036; stroke-width: 1.5;" width="131" x="1199" y="1761.3672"/><text fill="#000000" font-family="sans-serif" font-size="14" lengthAdjust="spacingAndGlyphs" textLength="117" x="1206" y="1781.9023">my.t-mobile.com</text><rect fill="#FEFECE" filter="url(#f1vdkhlfiinww4)" height="30.4883" style="stroke: #A80036; stroke-width: 1.5;" width="36" x="1662.5" y="91.6875"/><text fill="#000000" font-family="sans-serif" font-size="14" lengthAdjust="spacingAndGlyphs" textLength="22" x="1669.5" y="112.2227">EUI</text><rect fill="#FEFECE" filter="url(#f1vdkhlfiinww4)" height="30.4883" style="stroke: #A80036; stroke-width: 1.5;" width="36" x="1662.5" y="1757.3672"/><text fill="#000000" font-family="sans-serif" font-size="14" lengthAdjust="spacingAndGlyphs" textLength="22" x="1669.5" y="1777.9023">EUI</text><path d="M8,142.1758 L8,167.1758 L164,167.1758 L164,152.1758 L154,142.1758 L8,142.1758 " fill="#FBFB77" filter="url(#f1vdkhlfiinww4)" style="stroke: #A80036; stroke-width: 1.0;"/><path d="M154,142.1758 L154,152.1758 L164,152.1758 L154,142.1758 " fill="#FBFB77" style="stroke: #A80036; stroke-width: 1.0;"/><text fill="#000000" font-family="sans-serif" font-size="13" lengthAdjust="spacingAndGlyphs" textLength="135" x="14" y="159.7441">Unauthenticated User</text><path d="M257,181.4863 L257,221.4863 L602,221.4863 L602,191.4863 L592,181.4863 L257,181.4863 " fill="#D3D3D3" filter="url(#f1vdkhlfiinww4)" style="stroke: #A80036; stroke-width: 1.0;"/><path d="M592,181.4863 L592,191.4863 L602,191.4863 L592,181.4863 " fill="#D3D3D3" style="stroke: #A80036; stroke-width: 1.0;"/><text fill="#000000" font-family="sans-serif" font-size="13" lengthAdjust="spacingAndGlyphs" textLength="324" x="263" y="199.0547">For this example, customer is already on one of the</text><text fill="#000000" font-family="sans-serif" font-size="13" lengthAdjust="spacingAndGlyphs" textLength="246" x="263" y="214.3652">https://www.t-mobile.com PLPs/PDPs.</text><path d="M124,238.1074 L186,238.1074 L186,245.1074 L176,255.1074 L124,255.1074 L124,238.1074 " fill="#EEEEEE" style="stroke: #000000; stroke-width: 1.0;"/><rect fill="none" height="655.6758" style="stroke: #000000; stroke-width: 2.0;" width="1244" x="124" y="238.1074"/><text fill="#000000" font-family="sans-serif" font-size="13" font-weight="bold" lengthAdjust="spacingAndGlyphs" textLength="17" x="139" y="251.6758">alt</text><text fill="#000000" font-family="sans-serif" font-size="11" font-weight="bold" lengthAdjust="spacingAndGlyphs" textLength="146" x="201" y="250.7422">["non-cookied customer"]</text><polygon fill="#FF0000" points="599.5,272.7285,609.5,276.7285,599.5,280.7285,603.5,276.7285" style="stroke: #FF0000; stroke-width: 1.0;"/><line style="stroke: #FF0000; stroke-width: 1.0; stroke-dasharray: 2.0,2.0;" x1="172.5" x2="605.5" y1="276.7285" y2="276.7285"/><text fill="#000000" font-family="sans-serif" font-size="13" lengthAdjust="spacingAndGlyphs" textLength="59" x="179.5" y="271.9863">Clicks on</text><text fill="#000000" font-family="sans-serif" font-size="13" font-style="italic" font-weight="bold" lengthAdjust="spacingAndGlyphs" textLength="38" x="242.5" y="271.9863">Login</text><text fill="#000000" font-family="sans-serif" font-size="13" lengthAdjust="spacingAndGlyphs" textLength="151" x="284.5" y="271.9863">link on UNAV on PLP OR</text><text fill="#000000" font-family="sans-serif" font-size="13" font-style="italic" font-weight="bold" lengthAdjust="spacingAndGlyphs" textLength="77" x="439.5" y="271.9863">Add to Cart</text><text fill="#000000" font-family="sans-serif" font-size="13" lengthAdjust="spacingAndGlyphs" textLength="74" x="520.5" y="271.9863">CTA on PDP</text><polygon fill="#A80036" points="1256.5,302.0391,1266.5,306.0391,1256.5,310.0391,1260.5,306.0391" style="stroke: #A80036; stroke-width: 1.0;"/><line style="stroke: #A80036; stroke-width: 1.0;" x1="611.5" x2="1262.5" y1="306.0391" y2="306.0391"/><text fill="#000000" font-family="sans-serif" font-size="13" lengthAdjust="spacingAndGlyphs" textLength="83" x="618.5" y="301.2969">Navigates to:</text><a href="https://my.t-mobile.com/login.html?dest=https://www.t-mobile.com/cell-phones" target="_top" xlink:actuate="onRequest" xlink:show="new" xlink:title="https://my.t-mobile.com/login.html?dest=https://www.t-mobile.com/cell-phones" xlink:type="simple"><text fill="#0000FF" font-family="sans-serif" font-size="13" lengthAdjust="spacingAndGlyphs" text-decoration="underline" textLength="530" x="705.5" y="301.2969">https://my.t-mobile.com/login.html?dest=https://www.t-mobile.com/cell-phones</text></a><path d="M144,321.0391 L206,321.0391 L206,328.0391 L196,338.0391 L144,338.0391 L144,321.0391 " fill="#EEEEEE" style="stroke: #000000; stroke-width: 1.0;"/><rect fill="none" height="88.9316" style="stroke: #000000; stroke-width: 2.0;" width="563.5" x="144" y="321.0391"/><text fill="#000000" font-family="sans-serif" font-size="13" font-weight="bold" lengthAdjust="spacingAndGlyphs" textLength="17" x="159" y="334.6074">alt</text><text fill="#000000" font-family="sans-serif" font-size="11" font-weight="bold" lengthAdjust="spacingAndGlyphs" textLength="55" x="221" y="333.6738">["tablets"]</text><polygon fill="#FF0000" points="599.5,355.6602,609.5,359.6602,599.5,363.6602,603.5,359.6602" style="stroke: #FF0000; stroke-width: 1.0;"/><line style="stroke: #FF0000; stroke-width: 1.0; stroke-dasharray: 2.0,2.0;" x1="172.5" x2="605.5" y1="359.6602" y2="359.6602"/><text fill="#000000" font-family="sans-serif" font-size="13" lengthAdjust="spacingAndGlyphs" textLength="59" x="179.5" y="354.918">Clicks on</text><text fill="#000000" font-family="sans-serif" font-size="13" font-style="italic" font-weight="bold" lengthAdjust="spacingAndGlyphs" textLength="78" x="242.5" y="354.918">Click to Call</text><text fill="#000000" font-family="sans-serif" font-size="13" lengthAdjust="spacingAndGlyphs" textLength="26" x="324.5" y="354.918">CTA</text><line style="stroke: #A80036; stroke-width: 1.0;" x1="611.5" x2="653.5" y1="388.9707" y2="388.9707"/><line style="stroke: #A80036; stroke-width: 1.0;" x1="653.5" x2="653.5" y1="388.9707" y2="401.9707"/><line style="stroke: #A80036; stroke-width: 1.0;" x1="612.5" x2="653.5" y1="401.9707" y2="401.9707"/><polygon fill="#A80036" points="622.5,397.9707,612.5,401.9707,622.5,405.9707,618.5,401.9707" style="stroke: #A80036; stroke-width: 1.0;"/><text fill="#000000" font-family="sans-serif" font-size="13" lengthAdjust="spacingAndGlyphs" textLength="77" x="618.5" y="384.2285">Click to Call</text><line style="stroke: #000000; stroke-width: 1.0; stroke-dasharray: 2.0,2.0;" x1="124" x2="1368" y1="417.9707" y2="417.9707"/><text fill="#000000" font-family="sans-serif" font-size="11" font-weight="bold" lengthAdjust="spacingAndGlyphs" textLength="198" x="129" y="428.6055">["cookied/authenticated customer"]</text><path d="M134,438.9258 L196,438.9258 L196,445.9258 L186,455.9258 L134,455.9258 L134,438.9258 " fill="#EEEEEE" style="stroke: #000000; stroke-width: 1.0;"/><rect fill="none" height="447.8574" style="stroke: #000000; stroke-width: 2.0;" width="1224" x="134" y="438.9258"/><text fill="#000000" font-family="sans-serif" font-size="13" font-weight="bold" lengthAdjust="spacingAndGlyphs" textLength="17" x="149" y="452.4941">alt</text><text fill="#000000" font-family="sans-serif" font-size="11" font-weight="bold" lengthAdjust="spacingAndGlyphs" textLength="106" x="211" y="451.5605">["add to cart CTA"]</text><polygon fill="#FF0000" points="599.5,473.5469,609.5,477.5469,599.5,481.5469,603.5,477.5469" style="stroke: #FF0000; stroke-width: 1.0;"/><line style="stroke: #FF0000; stroke-width: 1.0; stroke-dasharray: 2.0,2.0;" x1="172.5" x2="605.5" y1="477.5469" y2="477.5469"/><text fill="#000000" font-family="sans-serif" font-size="13" lengthAdjust="spacingAndGlyphs" textLength="59" x="179.5" y="472.8047">Clicks on</text><text fill="#000000" font-family="sans-serif" font-size="13" font-style="italic" font-weight="bold" lengthAdjust="spacingAndGlyphs" textLength="77" x="242.5" y="472.8047">Add to Cart</text><text fill="#000000" font-family="sans-serif" font-size="13" lengthAdjust="spacingAndGlyphs" textLength="26" x="323.5" y="472.8047">CTA</text><path d="M544,492.5469 L606,492.5469 L606,499.5469 L596,509.5469 L544,509.5469 L544,492.5469 " fill="#EEEEEE" style="stroke: #000000; stroke-width: 1.0;"/><rect fill="none" height="90.8867" style="stroke: #000000; stroke-width: 2.0;" width="804" x="544" y="492.5469"/><text fill="#000000" font-family="sans-serif" font-size="13" font-weight="bold" lengthAdjust="spacingAndGlyphs" textLength="17" x="559" y="506.1152">alt</text><text fill="#000000" font-family="sans-serif" font-size="11" font-weight="bold" lengthAdjust="spacingAndGlyphs" textLength="146" x="621" y="505.1816">["standalone accessories"]</text><polygon fill="#A80036" points="1256.5,527.168,1266.5,531.168,1256.5,535.168,1260.5,531.168" style="stroke: #A80036; stroke-width: 1.0;"/><line style="stroke: #A80036; stroke-width: 1.0;" x1="611.5" x2="1262.5" y1="531.168" y2="531.168"/><text fill="#000000" font-family="sans-serif" font-size="13" lengthAdjust="spacingAndGlyphs" textLength="83" x="618.5" y="526.4258">Navigates to:</text><a href="https://my.t-mobile.com/shop/review-cart.html" target="_top" xlink:actuate="onRequest" xlink:show="new" xlink:title="https://my.t-mobile.com/shop/review-cart.html" xlink:type="simple"><text fill="#0000FF" font-family="sans-serif" font-size="13" lengthAdjust="spacingAndGlyphs" text-decoration="underline" textLength="311" x="705.5" y="526.4258">https://my.t-mobile.com/shop/review-cart.html</text></a><line style="stroke: #000000; stroke-width: 1.0; stroke-dasharray: 2.0,2.0;" x1="544" x2="1348" y1="540.168" y2="540.168"/><text fill="#000000" font-family="sans-serif" font-size="11" font-weight="bold" lengthAdjust="spacingAndGlyphs" textLength="98" x="549" y="550.8027">["smart watches"]</text><polygon fill="#A80036" points="1256.5,571.4336,1266.5,575.4336,1256.5,579.4336,1260.5,575.4336" style="stroke: #A80036; stroke-width: 1.0;"/><line style="stroke: #A80036; stroke-width: 1.0;" x1="611.5" x2="1262.5" y1="575.4336" y2="575.4336"/><text fill="#000000" font-family="sans-serif" font-size="13" lengthAdjust="spacingAndGlyphs" textLength="83" x="618.5" y="570.6914">Navigates to:</text><a href="https://my.t-mobile.com/purchase/watchplan" target="_top" xlink:actuate="onRequest" xlink:show="new" xlink:title="https://my.t-mobile.com/purchase/watchplan" xlink:type="simple"><text fill="#0000FF" font-family="sans-serif" font-size="13" lengthAdjust="spacingAndGlyphs" text-decoration="underline" textLength="296" x="705.5" y="570.6914">https://my.t-mobile.com/purchase/watchplan</text></a><line style="stroke: #000000; stroke-width: 1.0; stroke-dasharray: 2.0,2.0;" x1="134" x2="1358" y1="591.4336" y2="591.4336"/><text fill="#000000" font-family="sans-serif" font-size="11" font-weight="bold" lengthAdjust="spacingAndGlyphs" textLength="112" x="139" y="602.0684">["click to call CTA"]</text><path d="M144,612.3887 L206,612.3887 L206,619.3887 L196,629.3887 L144,629.3887 L144,612.3887 " fill="#EEEEEE" style="stroke: #000000; stroke-width: 1.0;"/><rect fill="none" height="88.9316" style="stroke: #000000; stroke-width: 2.0;" width="563.5" x="144" y="612.3887"/><text fill="#000000" font-family="sans-serif" font-size="13" font-weight="bold" lengthAdjust="spacingAndGlyphs" textLength="17" x="159" y="625.957">alt</text><text fill="#000000" font-family="sans-serif" font-size="11" font-weight="bold" lengthAdjust="spacingAndGlyphs" textLength="55" x="221" y="625.0234">["tablets"]</text><polygon fill="#FF0000" points="599.5,647.0098,609.5,651.0098,599.5,655.0098,603.5,651.0098" style="stroke: #FF0000; stroke-width: 1.0;"/><line style="stroke: #FF0000; stroke-width: 1.0; stroke-dasharray: 2.0,2.0;" x1="172.5" x2="605.5" y1="651.0098" y2="651.0098"/><text fill="#000000" font-family="sans-serif" font-size="13" lengthAdjust="spacingAndGlyphs" textLength="59" x="179.5" y="646.2676">Clicks on</text><text fill="#000000" font-family="sans-serif" font-size="13" font-style="italic" font-weight="bold" lengthAdjust="spacingAndGlyphs" textLength="78" x="242.5" y="646.2676">Click to Call</text><text fill="#000000" font-family="sans-serif" font-size="13" lengthAdjust="spacingAndGlyphs" textLength="26" x="324.5" y="646.2676">CTA</text><line style="stroke: #A80036; stroke-width: 1.0;" x1="611.5" x2="653.5" y1="680.3203" y2="680.3203"/><line style="stroke: #A80036; stroke-width: 1.0;" x1="653.5" x2="653.5" y1="680.3203" y2="693.3203"/><line style="stroke: #A80036; stroke-width: 1.0;" x1="612.5" x2="653.5" y1="693.3203" y2="693.3203"/><polygon fill="#A80036" points="622.5,689.3203,612.5,693.3203,622.5,697.3203,618.5,693.3203" style="stroke: #A80036; stroke-width: 1.0;"/><text fill="#000000" font-family="sans-serif" font-size="13" lengthAdjust="spacingAndGlyphs" textLength="77" x="618.5" y="675.5781">Click to Call</text><line style="stroke: #000000; stroke-width: 1.0; stroke-dasharray: 2.0,2.0;" x1="134" x2="1358" y1="709.3203" y2="709.3203"/><text fill="#000000" font-family="sans-serif" font-size="11" font-weight="bold" lengthAdjust="spacingAndGlyphs" textLength="85" x="139" y="719.9551">["cell-phones"]</text><path d="M144,730.2754 L206,730.2754 L206,737.2754 L196,747.2754 L144,747.2754 L144,730.2754 " fill="#EEEEEE" style="stroke: #000000; stroke-width: 1.0;"/><rect fill="none" height="149.5078" style="stroke: #000000; stroke-width: 2.0;" width="1204" x="144" y="730.2754"/><text fill="#000000" font-family="sans-serif" font-size="13" font-weight="bold" lengthAdjust="spacingAndGlyphs" textLength="17" x="159" y="743.8438">alt</text><text fill="#000000" font-family="sans-serif" font-size="11" font-weight="bold" lengthAdjust="spacingAndGlyphs" textLength="91" x="221" y="742.9102">["upgrade CTA"]</text><polygon fill="#FF0000" points="599.5,764.8965,609.5,768.8965,599.5,772.8965,603.5,768.8965" style="stroke: #FF0000; stroke-width: 1.0;"/><line style="stroke: #FF0000; stroke-width: 1.0; stroke-dasharray: 2.0,2.0;" x1="172.5" x2="605.5" y1="768.8965" y2="768.8965"/><text fill="#000000" font-family="sans-serif" font-size="13" lengthAdjust="spacingAndGlyphs" textLength="59" x="179.5" y="764.1543">Clicks on</text><text fill="#000000" font-family="sans-serif" font-size="13" font-style="italic" font-weight="bold" lengthAdjust="spacingAndGlyphs" textLength="59" x="242.5" y="764.1543">Upgrade</text><text fill="#000000" font-family="sans-serif" font-size="13" lengthAdjust="spacingAndGlyphs" textLength="26" x="305.5" y="764.1543">CTA</text><polygon fill="#A80036" points="1256.5,794.207,1266.5,798.207,1256.5,802.207,1260.5,798.207" style="stroke: #A80036; stroke-width: 1.0;"/><line style="stroke: #A80036; stroke-width: 1.0;" x1="611.5" x2="1262.5" y1="798.207" y2="798.207"/><text fill="#000000" font-family="sans-serif" font-size="13" lengthAdjust="spacingAndGlyphs" textLength="83" x="618.5" y="793.4648">Navigates to:</text><a href="https://my.t-mobile.com/purchase/shop" target="_top" xlink:actuate="onRequest" xlink:show="new" xlink:title="https://my.t-mobile.com/purchase/shop" xlink:type="simple"><text fill="#0000FF" font-family="sans-serif" font-size="13" lengthAdjust="spacingAndGlyphs" text-decoration="underline" textLength="263" x="705.5" y="793.4648">https://my.t-mobile.com/purchase/shop</text></a><line style="stroke: #000000; stroke-width: 1.0; stroke-dasharray: 2.0,2.0;" x1="144" x2="1348" y1="807.207" y2="807.207"/><text fill="#000000" font-family="sans-serif" font-size="11" font-weight="bold" lengthAdjust="spacingAndGlyphs" textLength="68" x="149" y="817.8418">["AAL CTA"]</text><polygon fill="#FF0000" points="599.5,838.4727,609.5,842.4727,599.5,846.4727,603.5,842.4727" style="stroke: #FF0000; stroke-width: 1.0;"/><line style="stroke: #FF0000; stroke-width: 1.0; stroke-dasharray: 2.0,2.0;" x1="172.5" x2="605.5" y1="842.4727" y2="842.4727"/><text fill="#000000" font-family="sans-serif" font-size="13" lengthAdjust="spacingAndGlyphs" textLength="59" x="179.5" y="837.7305">Clicks on</text><text fill="#000000" font-family="sans-serif" font-size="13" font-style="italic" font-weight="bold" lengthAdjust="spacingAndGlyphs" textLength="28" x="242.5" y="837.7305">AAL</text><text fill="#000000" font-family="sans-serif" font-size="13" lengthAdjust="spacingAndGlyphs" textLength="26" x="274.5" y="837.7305">CTA</text><polygon fill="#A80036" points="1256.5,867.7832,1266.5,871.7832,1256.5,875.7832,1260.5,871.7832" style="stroke: #A80036; stroke-width: 1.0;"/><line style="stroke: #A80036; stroke-width: 1.0;" x1="611.5" x2="1262.5" y1="871.7832" y2="871.7832"/><text fill="#000000" font-family="sans-serif" font-size="13" lengthAdjust="spacingAndGlyphs" textLength="83" x="618.5" y="867.041">Navigates to:</text><a href="https://my.t-mobile.com/purchase/plan" target="_top" xlink:actuate="onRequest" xlink:show="new" xlink:title="https://my.t-mobile.com/purchase/plan" xlink:type="simple"><text fill="#0000FF" font-family="sans-serif" font-size="13" lengthAdjust="spacingAndGlyphs" text-decoration="underline" textLength="259" x="705.5" y="867.041">https://my.t-mobile.com/purchase/plan</text></a><path d="M544,907.7832 L606,907.7832 L606,914.7832 L596,924.7832 L544,924.7832 L544,907.7832 " fill="#EEEEEE" style="stroke: #000000; stroke-width: 1.0;"/><rect fill="none" height="176.8633" style="stroke: #000000; stroke-width: 2.0;" width="1168.5" x="544" y="907.7832"/><text fill="#000000" font-family="sans-serif" font-size="13" font-weight="bold" lengthAdjust="spacingAndGlyphs" textLength="17" x="559" y="921.3516">alt</text><text fill="#000000" font-family="sans-serif" font-size="11" font-weight="bold" lengthAdjust="spacingAndGlyphs" textLength="146" x="621" y="920.418">["non-cookied customer"]</text><polygon fill="#A80036" points="622.5,942.4043,612.5,946.4043,622.5,950.4043,618.5,946.4043" style="stroke: #A80036; stroke-width: 1.0;"/><line style="stroke: #A80036; stroke-width: 1.0; stroke-dasharray: 2.0,2.0;" x1="616.5" x2="1267.5" y1="946.4043" y2="946.4043"/><text fill="#000000" font-family="sans-serif" font-size="13" lengthAdjust="spacingAndGlyphs" textLength="171" x="628.5" y="941.6621">Redirects to EUI Login Page</text><a href="https://account.t-mobile.com" target="_top" xlink:actuate="onRequest" xlink:show="new" xlink:title="https://account.t-mobile.com" xlink:type="simple"><text fill="#0000FF" font-family="sans-serif" font-size="13" lengthAdjust="spacingAndGlyphs" text-decoration="underline" textLength="192" x="803.5" y="941.6621">https://account.t-mobile.com</text></a><polygon fill="#A80036" points="1670.5,971.7148,1680.5,975.7148,1670.5,979.7148,1674.5,975.7148" style="stroke: #A80036; stroke-width: 1.0;"/><line style="stroke: #A80036; stroke-width: 1.0;" x1="611.5" x2="1676.5" y1="975.7148" y2="975.7148"/><text fill="#000000" font-family="sans-serif" font-size="13" lengthAdjust="spacingAndGlyphs" textLength="175" x="618.5" y="970.9727">Navigates to EUI Login Page</text><polygon fill="#A80036" points="622.5,1001.0254,612.5,1005.0254,622.5,1009.0254,618.5,1005.0254" style="stroke: #A80036; stroke-width: 1.0;"/><line style="stroke: #A80036; stroke-width: 1.0; stroke-dasharray: 2.0,2.0;" x1="616.5" x2="1681.5" y1="1005.0254" y2="1005.0254"/><text fill="#000000" font-family="sans-serif" font-size="13" lengthAdjust="spacingAndGlyphs" textLength="444" x="628.5" y="1000.2832">Redirects to MyTMO after successful authentication and passes a code</text><polygon fill="#A80036" points="1256.5,1030.3359,1266.5,1034.3359,1256.5,1038.3359,1260.5,1034.3359" style="stroke: #A80036; stroke-width: 1.0;"/><line style="stroke: #A80036; stroke-width: 1.0;" x1="611.5" x2="1262.5" y1="1034.3359" y2="1034.3359"/><text fill="#000000" font-family="sans-serif" font-size="13" lengthAdjust="spacingAndGlyphs" textLength="130" x="618.5" y="1029.5938">Navigates to MyTMO</text><a href="https://my.t-mobile.com?code=XXXXXXX" target="_top" xlink:actuate="onRequest" xlink:show="new" xlink:title="https://my.t-mobile.com?code=XXXXXXX" xlink:type="simple"><text fill="#0000FF" font-family="sans-serif" font-size="13" lengthAdjust="spacingAndGlyphs" text-decoration="underline" textLength="262" x="752.5" y="1029.5938">https://my.t-mobile.com?code=XXXXXXX</text></a><line style="stroke: #A80036; stroke-width: 1.0;" x1="1268.5" x2="1310.5" y1="1063.6465" y2="1063.6465"/><line style="stroke: #A80036; stroke-width: 1.0;" x1="1310.5" x2="1310.5" y1="1063.6465" y2="1076.6465"/><line style="stroke: #A80036; stroke-width: 1.0;" x1="1269.5" x2="1310.5" y1="1076.6465" y2="1076.6465"/><polygon fill="#A80036" points="1279.5,1072.6465,1269.5,1076.6465,1279.5,1080.6465,1275.5,1076.6465" style="stroke: #A80036; stroke-width: 1.0;"/><text fill="#000000" font-family="sans-serif" font-size="13" lengthAdjust="spacingAndGlyphs" textLength="319" x="1275.5" y="1058.9043">Runs login validations and creates MyTMO session</text><path d="M385,1098.6465 L447,1098.6465 L447,1105.6465 L437,1115.6465 L385,1115.6465 L385,1098.6465 " fill="#EEEEEE" style="stroke: #000000; stroke-width: 1.0;"/><rect fill="none" height="642.7207" style="stroke: #000000; stroke-width: 2.0;" width="1381" x="385" y="1098.6465"/><text fill="#000000" font-family="sans-serif" font-size="13" font-weight="bold" lengthAdjust="spacingAndGlyphs" textLength="17" x="400" y="1112.2148">alt</text><text fill="#000000" font-family="sans-serif" font-size="11" font-weight="bold" lengthAdjust="spacingAndGlyphs" textLength="146" x="462" y="1111.2813">["non-cookied customer"]</text><path d="M395,1122.957 L457,1122.957 L457,1129.957 L447,1139.957 L395,1139.957 L395,1122.957 " fill="#EEEEEE" style="stroke: #000000; stroke-width: 1.0;"/><rect fill="none" height="249.1055" style="stroke: #000000; stroke-width: 2.0;" width="953" x="395" y="1122.957"/><text fill="#000000" font-family="sans-serif" font-size="13" font-weight="bold" lengthAdjust="spacingAndGlyphs" textLength="17" x="410" y="1136.5254">alt</text><text fill="#000000" font-family="sans-serif" font-size="11" font-weight="bold" lengthAdjust="spacingAndGlyphs" textLength="214" x="472" y="1135.5918">["login from UNAV OR "Add to Cart""]</text><polygon fill="#A80036" points="622.5,1157.5781,612.5,1161.5781,622.5,1165.5781,618.5,1161.5781" style="stroke: #A80036; stroke-width: 1.0;"/><line style="stroke: #A80036; stroke-width: 1.0; stroke-dasharray: 2.0,2.0;" x1="616.5" x2="1267.5" y1="1161.5781" y2="1161.5781"/><text fill="#000000" font-family="sans-serif" font-size="13" lengthAdjust="spacingAndGlyphs" textLength="75" x="628.5" y="1156.8359">Redirects to</text><a href="https://www.t-mobile.com/cell-phones" target="_top" xlink:actuate="onRequest" xlink:show="new" xlink:title="https://www.t-mobile.com/cell-phones" xlink:type="simple"><text fill="#0000FF" font-family="sans-serif" font-size="13" lengthAdjust="spacingAndGlyphs" text-decoration="underline" textLength="255" x="707.5" y="1156.8359">https://www.t-mobile.com/cell-phones</text></a><polygon fill="#A80036" points="961.5,1186.8887,971.5,1190.8887,961.5,1194.8887,965.5,1190.8887" style="stroke: #A80036; stroke-width: 1.0;"/><line style="stroke: #A80036; stroke-width: 1.0;" x1="611.5" x2="967.5" y1="1190.8887" y2="1190.8887"/><text fill="#000000" font-family="sans-serif" font-size="13" lengthAdjust="spacingAndGlyphs" textLength="79" x="618.5" y="1186.1465">Navigates to</text><a href="https://www.t-mobile.com/cell-phones" target="_top" xlink:actuate="onRequest" xlink:show="new" xlink:title="https://www.t-mobile.com/cell-phones" xlink:type="simple"><text fill="#0000FF" font-family="sans-serif" font-size="13" lengthAdjust="spacingAndGlyphs" text-decoration="underline" textLength="255" x="701.5" y="1186.1465">https://www.t-mobile.com/cell-phones</text></a><polygon fill="#A80036" points="1256.5,1216.1992,1266.5,1220.1992,1256.5,1224.1992,1260.5,1220.1992" style="stroke: #A80036; stroke-width: 1.0;"/><line style="stroke: #A80036; stroke-width: 1.0;" x1="973.5" x2="1262.5" y1="1220.1992" y2="1220.1992"/><a href="POST" target="_top" xlink:actuate="onRequest" xlink:show="new" xlink:title="POST" xlink:type="simple"><text fill="#0000FF" font-family="sans-serif" font-size="13" lengthAdjust="spacingAndGlyphs" text-decoration="underline" textLength="32" x="980.5" y="1215.457">POST</text></a><text fill="#000000" font-family="sans-serif" font-size="13" lengthAdjust="spacingAndGlyphs" textLength="96" x="1016.5" y="1215.457">Get Credentials</text><polygon fill="#A80036" points="984.5,1260.8203,974.5,1264.8203,984.5,1268.8203,980.5,1264.8203" style="stroke: #A80036; stroke-width: 1.0;"/><line style="stroke: #A80036; stroke-width: 1.0; stroke-dasharray: 2.0,2.0;" x1="978.5" x2="1267.5" y1="1264.8203" y2="1264.8203"/><text fill="#000000" font-family="sans-serif" font-size="13" lengthAdjust="spacingAndGlyphs" textLength="131" x="990.5" y="1244.7676">CredentialsResponse</text><text fill="#000000" font-family="sans-serif" font-size="13" lengthAdjust="spacingAndGlyphs" textLength="271" x="990.5" y="1260.0781">(authenticated JWT and profile information)</text><polygon fill="#A80036" points="622.5,1305.4414,612.5,1309.4414,622.5,1313.4414,618.5,1309.4414" style="stroke: #A80036; stroke-width: 1.0;"/><line style="stroke: #A80036; stroke-width: 1.0; stroke-dasharray: 2.0,2.0;" x1="616.5" x2="972.5" y1="1309.4414" y2="1309.4414"/><text fill="#000000" font-family="sans-serif" font-size="13" lengthAdjust="spacingAndGlyphs" textLength="48" x="628.5" y="1289.3887">Returns</text><a href="https://www.t-mobile.com/cell-phones" target="_top" xlink:actuate="onRequest" xlink:show="new" xlink:title="https://www.t-mobile.com/cell-phones" xlink:type="simple"><text fill="#0000FF" font-family="sans-serif" font-size="13" lengthAdjust="spacingAndGlyphs" text-decoration="underline" textLength="21" x="680.5" y="1289.3887">PLP</text></a><text fill="#000000" font-family="sans-serif" font-size="13" lengthAdjust="spacingAndGlyphs" textLength="7" x="701.5" y="1289.3887">/</text><a href="https://www.t-mobile.com/cell-phone/apple-iphone-11" target="_top" xlink:actuate="onRequest" xlink:show="new" xlink:title="https://www.t-mobile.com/cell-phone/apple-iphone-11" xlink:type="simple"><text fill="#0000FF" font-family="sans-serif" font-size="13" lengthAdjust="spacingAndGlyphs" text-decoration="underline" textLength="24" x="708.5" y="1289.3887">PDP</text></a><text fill="#000000" font-family="sans-serif" font-size="13" lengthAdjust="spacingAndGlyphs" textLength="109" x="736.5" y="1289.3887">page respectively</text><text fill="#000000" font-family="sans-serif" font-size="13" lengthAdjust="spacingAndGlyphs" textLength="228" x="628.5" y="1304.6992">with logged in products information</text><path d="M405,1322.4414 L405,1362.4414 L602,1362.4414 L602,1332.4414 L592,1322.4414 L405,1322.4414 " fill="#FF00FF" filter="url(#f1vdkhlfiinww4)" style="stroke: #A80036; stroke-width: 1.0;"/><path d="M592,1322.4414 L592,1332.4414 L602,1332.4414 L592,1322.4414 " fill="#FF00FF" style="stroke: #A80036; stroke-width: 1.0;"/><text fill="#000000" font-family="sans-serif" font-size="13" lengthAdjust="spacingAndGlyphs" textLength="173" x="411" y="1340.0098">reloads with base customer</text><text fill="#000000" font-family="sans-serif" font-size="13" lengthAdjust="spacingAndGlyphs" textLength="176" x="411" y="1355.3203">crp pricing, promotions etc.</text><line style="stroke: #000000; stroke-width: 1.0; stroke-dasharray: 2.0,2.0;" x1="385" x2="1766" y1="1380.0625" y2="1380.0625"/><text fill="#000000" font-family="sans-serif" font-size="11" font-weight="bold" lengthAdjust="spacingAndGlyphs" textLength="198" x="390" y="1390.6973">["cookied/authenticated customer"]</text><path d="M1179,1401.0176 L1241,1401.0176 L1241,1408.0176 L1231,1418.0176 L1179,1418.0176 L1179,1401.0176 " fill="#EEEEEE" style="stroke: #000000; stroke-width: 1.0;"/><rect fill="none" height="333.3496" style="stroke: #000000; stroke-width: 2.0;" width="577" x="1179" y="1401.0176"/><text fill="#000000" font-family="sans-serif" font-size="13" font-weight="bold" lengthAdjust="spacingAndGlyphs" textLength="17" x="1194" y="1414.5859">alt</text><text fill="#000000" font-family="sans-serif" font-size="11" font-weight="bold" lengthAdjust="spacingAndGlyphs" textLength="110" x="1256" y="1413.6523">["Add to Cart CTA"]</text><path d="M1189,1425.3281 L1251,1425.3281 L1251,1432.3281 L1241,1442.3281 L1189,1442.3281 L1189,1425.3281 " fill="#EEEEEE" style="stroke: #000000; stroke-width: 1.0;"/><rect fill="none" height="116.8867" style="stroke: #000000; stroke-width: 2.0;" width="492.5" x="1189" y="1425.3281"/><text fill="#000000" font-family="sans-serif" font-size="13" font-weight="bold" lengthAdjust="spacingAndGlyphs" textLength="17" x="1204" y="1438.8965">alt</text><text fill="#000000" font-family="sans-serif" font-size="11" font-weight="bold" lengthAdjust="spacingAndGlyphs" textLength="82" x="1266" y="1437.9629">["accessories"]</text><line style="stroke: #A80036; stroke-width: 1.0;" x1="1268.5" x2="1310.5" y1="1463.9492" y2="1463.9492"/><line style="stroke: #A80036; stroke-width: 1.0;" x1="1310.5" x2="1310.5" y1="1463.9492" y2="1476.9492"/><line style="stroke: #A80036; stroke-width: 1.0;" x1="1269.5" x2="1310.5" y1="1476.9492" y2="1476.9492"/><polygon fill="#A80036" points="1279.5,1472.9492,1269.5,1476.9492,1279.5,1480.9492,1275.5,1476.9492" style="stroke: #A80036; stroke-width: 1.0;"/><text fill="#000000" font-family="sans-serif" font-size="13" lengthAdjust="spacingAndGlyphs" textLength="79" x="1275.5" y="1459.207">Redirects to:</text><a href="https://my.t-mobile.com/shop/review-cart.html" target="_top" xlink:actuate="onRequest" xlink:show="new" xlink:title="https://my.t-mobile.com/shop/review-cart.html" xlink:type="simple"><text fill="#0000FF" font-family="sans-serif" font-size="13" lengthAdjust="spacingAndGlyphs" text-decoration="underline" textLength="311" x="1358.5" y="1459.207">https://my.t-mobile.com/shop/review-cart.html</text></a><line style="stroke: #000000; stroke-width: 1.0; stroke-dasharray: 2.0,2.0;" x1="1189" x2="1681.5" y1="1485.9492" y2="1485.9492"/><text fill="#000000" font-family="sans-serif" font-size="11" font-weight="bold" lengthAdjust="spacingAndGlyphs" textLength="98" x="1194" y="1496.584">["smart watches"]</text><line style="stroke: #A80036; stroke-width: 1.0;" x1="1268.5" x2="1310.5" y1="1521.2148" y2="1521.2148"/><line style="stroke: #A80036; stroke-width: 1.0;" x1="1310.5" x2="1310.5" y1="1521.2148" y2="1534.2148"/><line style="stroke: #A80036; stroke-width: 1.0;" x1="1269.5" x2="1310.5" y1="1534.2148" y2="1534.2148"/><polygon fill="#A80036" points="1279.5,1530.2148,1269.5,1534.2148,1279.5,1538.2148,1275.5,1534.2148" style="stroke: #A80036; stroke-width: 1.0;"/><text fill="#000000" font-family="sans-serif" font-size="13" lengthAdjust="spacingAndGlyphs" textLength="79" x="1275.5" y="1516.4727">Redirects to:</text><a href="https://my.t-mobile.com/purchase/plan" target="_top" xlink:actuate="onRequest" xlink:show="new" xlink:title="https://my.t-mobile.com/purchase/plan" xlink:type="simple"><text fill="#0000FF" font-family="sans-serif" font-size="13" lengthAdjust="spacingAndGlyphs" text-decoration="underline" textLength="259" x="1358.5" y="1516.4727">https://my.t-mobile.com/purchase/plan</text></a><line style="stroke: #000000; stroke-width: 1.0; stroke-dasharray: 2.0,2.0;" x1="1179" x2="1756" y1="1550.2148" y2="1550.2148"/><text fill="#000000" font-family="sans-serif" font-size="11" font-weight="bold" lengthAdjust="spacingAndGlyphs" textLength="85" x="1184" y="1560.8496">["cell-phones"]</text><path d="M1189,1571.1699 L1251,1571.1699 L1251,1578.1699 L1241,1588.1699 L1189,1588.1699 L1189,1571.1699 " fill="#EEEEEE" style="stroke: #000000; stroke-width: 1.0;"/><rect fill="none" height="156.1973" style="stroke: #000000; stroke-width: 2.0;" width="557" x="1189" y="1571.1699"/><text fill="#000000" font-family="sans-serif" font-size="13" font-weight="bold" lengthAdjust="spacingAndGlyphs" textLength="17" x="1204" y="1584.7383">alt</text><text fill="#000000" font-family="sans-serif" font-size="11" font-weight="bold" lengthAdjust="spacingAndGlyphs" textLength="91" x="1266" y="1583.8047">["upgrade CTA"]</text><line style="stroke: #A80036; stroke-width: 1.0;" x1="1268.5" x2="1310.5" y1="1609.791" y2="1609.791"/><line style="stroke: #A80036; stroke-width: 1.0;" x1="1310.5" x2="1310.5" y1="1609.791" y2="1622.791"/><line style="stroke: #A80036; stroke-width: 1.0;" x1="1269.5" x2="1310.5" y1="1622.791" y2="1622.791"/><polygon fill="#A80036" points="1279.5,1618.791,1269.5,1622.791,1279.5,1626.791,1275.5,1622.791" style="stroke: #A80036; stroke-width: 1.0;"/><text fill="#000000" font-family="sans-serif" font-size="13" lengthAdjust="spacingAndGlyphs" textLength="79" x="1275.5" y="1605.0488">Redirects to:</text><a href="https://my.t-mobile.com/purchase/shop" target="_top" xlink:actuate="onRequest" xlink:show="new" xlink:title="https://my.t-mobile.com/purchase/shop" xlink:type="simple"><text fill="#0000FF" font-family="sans-serif" font-size="13" lengthAdjust="spacingAndGlyphs" text-decoration="underline" textLength="263" x="1358.5" y="1605.0488">https://my.t-mobile.com/purchase/shop</text></a><path d="M1273,1635.791 L1273,1660.791 L1732,1660.791 L1732,1645.791 L1722,1635.791 L1273,1635.791 " fill="#90EE90" filter="url(#f1vdkhlfiinww4)" style="stroke: #A80036; stroke-width: 1.0;"/><path d="M1722,1635.791 L1722,1645.791 L1732,1645.791 L1722,1635.791 " fill="#90EE90" style="stroke: #A80036; stroke-width: 1.0;"/><text fill="#000000" font-family="sans-serif" font-size="13" lengthAdjust="spacingAndGlyphs" textLength="144" x="1279" y="1653.3594">eventually redirects to:</text><a href="https://my.t-mobile.com/purchase/shop" target="_top" xlink:actuate="onRequest" xlink:show="new" xlink:title="https://my.t-mobile.com/purchase/shop" xlink:type="simple"><text fill="#0000FF" font-family="sans-serif" font-size="13" lengthAdjust="spacingAndGlyphs" text-decoration="underline" textLength="81" x="1427" y="1653.3594">line-selector</text></a><text fill="#000000" font-family="sans-serif" font-size="13" lengthAdjust="spacingAndGlyphs" textLength="73" x="1512" y="1653.3594">based upon</text><text fill="#000000" font-family="sans-serif" font-size="13" font-style="italic" font-weight="bold" lengthAdjust="spacingAndGlyphs" textLength="82" x="1589" y="1653.3594">tmo2mytmo</text><text fill="#000000" font-family="sans-serif" font-size="13" lengthAdjust="spacingAndGlyphs" textLength="42" x="1675" y="1653.3594">cookie</text><line style="stroke: #000000; stroke-width: 1.0; stroke-dasharray: 2.0,2.0;" x1="1189" x2="1746" y1="1671.1016" y2="1671.1016"/><text fill="#000000" font-family="sans-serif" font-size="11" font-weight="bold" lengthAdjust="spacingAndGlyphs" textLength="68" x="1194" y="1681.7363">["AAL CTA"]</text><line style="stroke: #A80036; stroke-width: 1.0;" x1="1268.5" x2="1310.5" y1="1706.3672" y2="1706.3672"/><line style="stroke: #A80036; stroke-width: 1.0;" x1="1310.5" x2="1310.5" y1="1706.3672" y2="1719.3672"/><line style="stroke: #A80036; stroke-width: 1.0;" x1="1269.5" x2="1310.5" y1="1719.3672" y2="1719.3672"/><polygon fill="#A80036" points="1279.5,1715.3672,1269.5,1719.3672,1279.5,1723.3672,1275.5,1719.3672" style="stroke: #A80036; stroke-width: 1.0;"/><text fill="#000000" font-family="sans-serif" font-size="13" lengthAdjust="spacingAndGlyphs" textLength="79" x="1275.5" y="1701.625">Redirects to:</text><a href="https://my.t-mobile.com/purchase/device-intent" target="_top" xlink:actuate="onRequest" xlink:show="new" xlink:title="https://my.t-mobile.com/purchase/device-intent" xlink:type="simple"><text fill="#0000FF" font-family="sans-serif" font-size="13" lengthAdjust="spacingAndGlyphs" text-decoration="underline" textLength="317" x="1358.5" y="1701.625">https://my.t-mobile.com/purchase/device-intent</text></a><text fill="#888888" font-family="sans-serif" font-size="32" lengthAdjust="spacingAndGlyphs" textLength="466" x="656.5" y="33.9375">Login and Shop from PLP/PDP</text><!--
@startuml TOS-PLP-PDP-LOGIN-AND-SHOP-FLOW
actor User
collections tmobile as "t-mobile.com" order 10
participant Hapi order 20
collections MyTMO as "my.t-mobile.com" order 30
participant EUI order 40

center header
<font size=32>Login and Shop from PLP/PDP</font>
endheader

note left User : Unauthenticated User

note left tmobile #lightgrey
For this example, customer is already on one of the
https://www.t-mobile.com PLPs/PDPs.
end note

alt "non-cookied customer"
User -[#red]-> tmobile: Clicks on //**Login**// link on UNAV on PLP OR //**Add to Cart**// CTA on PDP
tmobile -> MyTMO: Navigates to: [[https://my.t-mobile.com/login.html?dest=https://www.t-mobile.com/cell-phones https://my.t-mobile.com/login.html?dest=https://www.t-mobile.com/cell-phones]]
alt "tablets"
User -[#red]-> tmobile: Clicks on //**Click to Call**// CTA
tmobile -> tmobile: Click to Call
end
else "cookied/authenticated customer"
alt "add to cart CTA"
User -[#red]-> tmobile: Clicks on //**Add to Cart**// CTA
alt "standalone accessories"
tmobile -> MyTMO: Navigates to: [[https://my.t-mobile.com/shop/review-cart.html https://my.t-mobile.com/shop/review-cart.html]]
else "smart watches"
tmobile -> MyTMO: Navigates to: [[https://my.t-mobile.com/purchase/watchplan https://my.t-mobile.com/purchase/watchplan]]
end
else "click to call CTA"
alt "tablets"
User -[#red]-> tmobile: Clicks on //**Click to Call**// CTA
tmobile -> tmobile: Click to Call
end
else "cell-phones"
alt "upgrade CTA"
User -[#red]-> tmobile: Clicks on //**Upgrade**// CTA
tmobile -> MyTMO: Navigates to: [[https://my.t-mobile.com/purchase/shop https://my.t-mobile.com/purchase/shop]]
else "AAL CTA"
User -[#red]-> tmobile: Clicks on //**AAL**// CTA
tmobile -> MyTMO: Navigates to: [[https://my.t-mobile.com/purchase/plan https://my.t-mobile.com/purchase/plan]]
end
end
end
alt "non-cookied customer"
tmobile <- - MyTMO: Redirects to EUI Login Page [[https://account.t-mobile.com https://account.t-mobile.com]]
tmobile -> EUI: Navigates to EUI Login Page
tmobile <- - EUI: Redirects to MyTMO after successful authentication and passes a code
tmobile -> MyTMO: Navigates to MyTMO [[https://my.t-mobile.com?code=XXXXXXX https://my.t-mobile.com?code=XXXXXXX]]
MyTMO -> MyTMO: Runs login validations and creates MyTMO session
end
alt "non-cookied customer"
alt "login from UNAV OR "Add to Cart""
tmobile <- - MyTMO: Redirects to [[https://www.t-mobile.com/cell-phones https://www.t-mobile.com/cell-phones]]
tmobile -> Hapi: Navigates to [[https://www.t-mobile.com/cell-phones https://www.t-mobile.com/cell-phones]]
Hapi -> MyTMO: [[POST]] Get Credentials
Hapi <- - MyTMO: CredentialsResponse \n(authenticated JWT and profile information)

tmobile <- - Hapi: Returns [[https://www.t-mobile.com/cell-phones PLP]]/[[https://www.t-mobile.com/cell-phone/apple-iphone-11 PDP]] page respectively \nwith logged in products information
note left tmobile #magenta
reloads with base customer
crp pricing, promotions etc.
end note
end
else "cookied/authenticated customer"
alt "Add to Cart CTA"
alt "accessories"
MyTMO -> MyTMO: Redirects to: [[https://my.t-mobile.com/shop/review-cart.html https://my.t-mobile.com/shop/review-cart.html]]
else "smart watches"
MyTMO -> MyTMO: Redirects to: [[https://my.t-mobile.com/purchase/plan https://my.t-mobile.com/purchase/plan]]
end
else "cell-phones"
alt "upgrade CTA"
MyTMO -> MyTMO: Redirects to: [[https://my.t-mobile.com/purchase/shop https://my.t-mobile.com/purchase/shop]]
note right MyTMO #LightGreen
eventually redirects to: [[https://my.t-mobile.com/purchase/shop line-selector]] based upon //**tmo2mytmo**// cookie
end note
else "AAL CTA"
MyTMO -> MyTMO: Redirects to: [[https://my.t-mobile.com/purchase/device-intent https://my.t-mobile.com/purchase/device-intent]]
end
end
end

@enduml

PlantUML version 1.2019.09(Mon Aug 26 09:19:51 PDT 2019)
(GPL source distribution)
Java Runtime: Java(TM) SE Runtime Environment
JVM: Java HotSpot(TM) 64-Bit Server VM
Java Version: 1.8.0_131-b11
Operating System: Mac OS X
OS Version: 10.14.6
Default Encoding: UTF-8
Language: en
Country: US
--></g></svg>