<?xml version="1.0" encoding="UTF-8" standalone="no"?><svg xmlns="http://www.w3.org/2000/svg" xmlns:xlink="http://www.w3.org/1999/xlink" contentScriptType="application/ecmascript" contentStyleType="text/css" height="2161.6px" preserveAspectRatio="none" style="width:2643px;height:2161px;" version="1.1" viewBox="0 0 2643 2161" width="2643.2px" zoomAndPan="magnify"><defs><filter height="300%" id="fpk8n5n2fadpr" width="300%" x="-1" y="-1"><feGaussianBlur result="blurOut" stdDeviation="3.2"/><feColorMatrix in="blurOut" result="blurOut2" type="matrix" values="0 0 0 0 0 0 0 0 0 0 0 0 0 0 0 0 0 0 .4 0"/><feOffset dx="6.4" dy="6.4" in="blurOut2" result="blurOut3"/><feBlend in="SourceGraphic" in2="blurOut3" mode="normal"/></filter></defs><g><rect fill="#FFFFFF" filter="url(#fpk8n5n2fadpr)" height="1083.3563" style="stroke: #A80036; stroke-width: 1.6;" width="16" x="943.2" y="253.5781"/><rect fill="#FFFFFF" filter="url(#fpk8n5n2fadpr)" height="598.4594" style="stroke: #A80036; stroke-width: 1.6;" width="16" x="943.2" y="1383.8313"/><rect fill="#FFFFFF" filter="url(#fpk8n5n2fadpr)" height="145.4188" style="stroke: #000000; stroke-width: 3.2;" width="992.8" x="896" y="605.8563"/><rect fill="#FFFFFF" height="70.825" style="stroke: none; stroke-width: 1.6;" width="992.8" x="896" y="680.45"/><rect fill="#FFFFFF" filter="url(#fpk8n5n2fadpr)" height="121.4906" style="stroke: #000000; stroke-width: 3.2;" width="608" x="896" y="1734.5094"/><line style="stroke: #A80036; stroke-width: 1.6; stroke-dasharray: 5.0,5.0;" x1="41.6" x2="41.6" y1="203.4813" y2="2022.2906"/><line style="stroke: #A80036; stroke-width: 1.6; stroke-dasharray: 5.0,5.0;" x1="620.8" x2="620.8" y1="203.4813" y2="2022.2906"/><line style="stroke: #A80036; stroke-width: 1.6; stroke-dasharray: 5.0,5.0;" x1="950.4" x2="950.4" y1="203.4813" y2="2022.2906"/><line style="stroke: #A80036; stroke-width: 1.6; stroke-dasharray: 5.0,5.0;" x1="1451.2" x2="1451.2" y1="203.4813" y2="2022.2906"/><line style="stroke: #A80036; stroke-width: 1.6; stroke-dasharray: 5.0,5.0;" x1="1820" x2="1820" y1="203.4813" y2="2022.2906"/><line style="stroke: #A80036; stroke-width: 1.6; stroke-dasharray: 5.0,5.0;" x1="2511.2" x2="2511.2" y1="203.4813" y2="2022.2906"/><line style="stroke: #A80036; stroke-width: 1.6; stroke-dasharray: 5.0,5.0;" x1="2599.2" x2="2599.2" y1="203.4813" y2="2022.2906"/><text fill="#000000" font-family="sans-serif" font-size="22.4" lengthAdjust="spacingAndGlyphs" textLength="49.6" x="12.8" y="198.7563">User</text><ellipse cx="42.4" cy="85.9" fill="#FEFECE" filter="url(#fpk8n5n2fadpr)" rx="12.8" ry="12.8" style="stroke: #A80036; stroke-width: 3.2;"/><path d="M42.4,98.7 L42.4,141.9 M21.6,111.5 L63.2,111.5 M42.4,141.9 L21.6,165.9 M42.4,141.9 L63.2,165.9 " fill="none" filter="url(#fpk8n5n2fadpr)" style="stroke: #A80036; stroke-width: 3.2;"/><text fill="#000000" font-family="sans-serif" font-size="22.4" lengthAdjust="spacingAndGlyphs" textLength="49.6" x="12.8" y="2042.3469">User</text><ellipse cx="42.4" cy="2063.0719" fill="#FEFECE" filter="url(#fpk8n5n2fadpr)" rx="12.8" ry="12.8" style="stroke: #A80036; stroke-width: 3.2;"/><path d="M42.4,2075.8719 L42.4,2119.0719 M21.6,2088.6719 L63.2,2088.6719 M42.4,2119.0719 L21.6,2143.0719 M42.4,2119.0719 L63.2,2143.0719 " fill="none" filter="url(#fpk8n5n2fadpr)" style="stroke: #A80036; stroke-width: 3.2;"/><rect fill="#FEFECE" filter="url(#fpk8n5n2fadpr)" height="48.7813" style="stroke: #A80036; stroke-width: 2.4000000000000004;" width="110.4" x="563.2" y="146.7"/><text fill="#000000" font-family="sans-serif" font-size="22.4" lengthAdjust="spacingAndGlyphs" textLength="88" x="574.4" y="179.5563">Browser</text><rect fill="#FEFECE" filter="url(#fpk8n5n2fadpr)" height="48.7813" style="stroke: #A80036; stroke-width: 2.4000000000000004;" width="110.4" x="563.2" y="2020.6906"/><text fill="#000000" font-family="sans-serif" font-size="22.4" lengthAdjust="spacingAndGlyphs" textLength="88" x="574.4" y="2053.5469">Browser</text><rect fill="#FEFECE" filter="url(#fpk8n5n2fadpr)" height="48.7813" style="stroke: #A80036; stroke-width: 2.4000000000000004;" width="72" x="912" y="146.7"/><text fill="#000000" font-family="sans-serif" font-size="22.4" lengthAdjust="spacingAndGlyphs" textLength="49.6" x="923.2" y="179.5563">Hapi</text><rect fill="#FEFECE" filter="url(#fpk8n5n2fadpr)" height="48.7813" style="stroke: #A80036; stroke-width: 2.4000000000000004;" width="72" x="912" y="2020.6906"/><text fill="#000000" font-family="sans-serif" font-size="22.4" lengthAdjust="spacingAndGlyphs" textLength="49.6" x="923.2" y="2053.5469">Hapi</text><rect fill="#FEFECE" filter="url(#fpk8n5n2fadpr)" height="48.7813" style="stroke: #A80036; stroke-width: 2.4000000000000004;" width="65.6" x="1416" y="146.7"/><text fill="#000000" font-family="sans-serif" font-size="22.4" lengthAdjust="spacingAndGlyphs" textLength="43.2" x="1427.2" y="179.5563">EOS</text><rect fill="#FEFECE" filter="url(#fpk8n5n2fadpr)" height="48.7813" style="stroke: #A80036; stroke-width: 2.4000000000000004;" width="65.6" x="1416" y="2020.6906"/><text fill="#000000" font-family="sans-serif" font-size="22.4" lengthAdjust="spacingAndGlyphs" textLength="43.2" x="1427.2" y="2053.5469">EOS</text><rect fill="#FEFECE" filter="url(#fpk8n5n2fadpr)" height="48.7813" style="stroke: #A80036; stroke-width: 2.4000000000000004;" width="99.2" x="1767.2" y="146.7"/><text fill="#000000" font-family="sans-serif" font-size="22.4" lengthAdjust="spacingAndGlyphs" textLength="76.8" x="1778.4" y="179.5563">Apigee</text><rect fill="#FEFECE" filter="url(#fpk8n5n2fadpr)" height="48.7813" style="stroke: #A80036; stroke-width: 2.4000000000000004;" width="99.2" x="1767.2" y="2020.6906"/><text fill="#000000" font-family="sans-serif" font-size="22.4" lengthAdjust="spacingAndGlyphs" textLength="76.8" x="1778.4" y="2053.5469">Apigee</text><rect fill="#FEFECE" filter="url(#fpk8n5n2fadpr)" height="48.7813" style="stroke: #A80036; stroke-width: 2.4000000000000004;" width="70.4" x="2472.8" y="146.7"/><text fill="#000000" font-family="sans-serif" font-size="22.4" lengthAdjust="spacingAndGlyphs" textLength="48" x="2484" y="179.5563">DCD</text><rect fill="#FEFECE" filter="url(#fpk8n5n2fadpr)" height="48.7813" style="stroke: #A80036; stroke-width: 2.4000000000000004;" width="70.4" x="2472.8" y="2020.6906"/><text fill="#000000" font-family="sans-serif" font-size="22.4" lengthAdjust="spacingAndGlyphs" textLength="48" x="2484" y="2053.5469">DCD</text><rect fill="#FEFECE" filter="url(#fpk8n5n2fadpr)" height="48.7813" style="stroke: #A80036; stroke-width: 2.4000000000000004;" width="60.8" x="2565.6" y="146.7"/><text fill="#000000" font-family="sans-serif" font-size="22.4" lengthAdjust="spacingAndGlyphs" textLength="38.4" x="2576.8" y="179.5563">MW</text><rect fill="#FEFECE" filter="url(#fpk8n5n2fadpr)" height="48.7813" style="stroke: #A80036; stroke-width: 2.4000000000000004;" width="60.8" x="2565.6" y="2020.6906"/><text fill="#000000" font-family="sans-serif" font-size="22.4" lengthAdjust="spacingAndGlyphs" textLength="38.4" x="2576.8" y="2053.5469">MW</text><rect fill="#FFFFFF" filter="url(#fpk8n5n2fadpr)" height="1083.3563" style="stroke: #A80036; stroke-width: 1.6;" width="16" x="943.2" y="253.5781"/><rect fill="#FFFFFF" filter="url(#fpk8n5n2fadpr)" height="598.4594" style="stroke: #A80036; stroke-width: 1.6;" width="16" x="943.2" y="1383.8313"/><polygon fill="#A80036" points="602.4,247.1781,618.4,253.5781,602.4,259.9781,608.8,253.5781" style="stroke: #A80036; stroke-width: 1.6;"/><line style="stroke: #A80036; stroke-width: 1.6;" x1="42.4" x2="612" y1="253.5781" y2="253.5781"/><text fill="#000000" font-family="sans-serif" font-size="20.8" lengthAdjust="spacingAndGlyphs" textLength="540.8" x="53.6" y="245.9906">Navigates to https://www.t-mobile.com/cell-phones</text><polygon fill="#A80036" points="924,294.075,940,300.475,924,306.875,930.4,300.475" style="stroke: #A80036; stroke-width: 1.6;"/><line style="stroke: #A80036; stroke-width: 1.6;" x1="621.6" x2="933.6" y1="300.475" y2="300.475"/><text fill="#000000" font-family="sans-serif" font-size="20.8" lengthAdjust="spacingAndGlyphs" textLength="132.8" x="632.8" y="292.8875">/cell-phones</text><polygon fill="#A80036" points="1800.8,340.9719,1816.8,347.3719,1800.8,353.7719,1807.2,347.3719" style="stroke: #A80036; stroke-width: 1.6;"/><line style="stroke: #A80036; stroke-width: 1.6;" x1="959.2" x2="1810.4" y1="347.3719" y2="347.3719"/><a href="POST" target="_top" xlink:actuate="onRequest" xlink:show="new" xlink:title="POST" xlink:type="simple"><text fill="#0000FF" font-family="sans-serif" font-size="20.8" lengthAdjust="spacingAndGlyphs" text-decoration="underline" textLength="51.2" x="970.4" y="339.7844">POST</text></a><text fill="#000000" font-family="sans-serif" font-size="20.8" lengthAdjust="spacingAndGlyphs" textLength="196.8" x="1028" y="339.7844">/oauth2/v4/tokens</text><polygon fill="#A80036" points="976.8,387.8688,960.8,394.2688,976.8,400.6688,970.4,394.2688" style="stroke: #A80036; stroke-width: 1.6;"/><line style="stroke: #A80036; stroke-width: 1.6; stroke-dasharray: 2.0,2.0;" x1="967.2" x2="1818.4" y1="394.2688" y2="394.2688"/><text fill="#000000" font-family="sans-serif" font-size="20.8" lengthAdjust="spacingAndGlyphs" textLength="179.2" x="986.4" y="386.6813">returns JWT token</text><polygon fill="#A80036" points="1800.8,434.7656,1816.8,441.1656,1800.8,447.5656,1807.2,441.1656" style="stroke: #A80036; stroke-width: 1.6;"/><line style="stroke: #A80036; stroke-width: 1.6;" x1="959.2" x2="1810.4" y1="441.1656" y2="441.1656"/><a href="POST" target="_top" xlink:actuate="onRequest" xlink:show="new" xlink:title="POST" xlink:type="simple"><text fill="#0000FF" font-family="sans-serif" font-size="20.8" lengthAdjust="spacingAndGlyphs" text-decoration="underline" textLength="51.2" x="970.4" y="433.5781">POST</text></a><text fill="#000000" font-family="sans-serif" font-size="20.8" lengthAdjust="spacingAndGlyphs" textLength="230.4" x="1028" y="433.5781">/commerce/v3/tokens</text><polygon fill="#A80036" points="2492,481.6625,2508,488.0625,2492,494.4625,2498.4,488.0625" style="stroke: #A80036; stroke-width: 1.6;"/><line style="stroke: #A80036; stroke-width: 1.6;" x1="1820" x2="2501.6" y1="488.0625" y2="488.0625"/><a href="POST" target="_top" xlink:actuate="onRequest" xlink:show="new" xlink:title="POST" xlink:type="simple"><text fill="#0000FF" font-family="sans-serif" font-size="20.8" lengthAdjust="spacingAndGlyphs" text-decoration="underline" textLength="51.2" x="1831.2" y="480.475">POST</text></a><text fill="#000000" font-family="sans-serif" font-size="20.8" lengthAdjust="spacingAndGlyphs" textLength="230.4" x="1888.8" y="480.475">/commerce/v3/tokens</text><a href="https://bitbucket.service.edp.t-mobile.com/projects/EITCODEDOC/repos/flow-documentation/browse/swagger/ce.dsg.dcp/v3.1/Authentication_Swagger.json" target="_top" xlink:actuate="onRequest" xlink:show="new" xlink:title="https://bitbucket.service.edp.t-mobile.com/projects/EITCODEDOC/repos/flow-documentation/browse/swagger/ce.dsg.dcp/v3.1/Authentication_Swagger.json" xlink:type="simple"><text fill="#0000FF" font-family="sans-serif" font-size="20.8" lengthAdjust="spacingAndGlyphs" text-decoration="underline" textLength="83.2" x="2125.6" y="480.475">swagger</text></a><polygon fill="#A80036" points="1837.6,528.5594,1821.6,534.9594,1837.6,541.3594,1831.2,534.9594" style="stroke: #A80036; stroke-width: 1.6;"/><line style="stroke: #A80036; stroke-width: 1.6; stroke-dasharray: 2.0,2.0;" x1="1828" x2="2509.6" y1="534.9594" y2="534.9594"/><text fill="#000000" font-family="sans-serif" font-size="20.8" lengthAdjust="spacingAndGlyphs" textLength="243.2" x="1847.2" y="527.3719">Register token response</text><polygon fill="#A80036" points="976.8,575.4563,960.8,581.8563,976.8,588.2563,970.4,581.8563" style="stroke: #A80036; stroke-width: 1.6;"/><line style="stroke: #A80036; stroke-width: 1.6; stroke-dasharray: 2.0,2.0;" x1="967.2" x2="1818.4" y1="581.8563" y2="581.8563"/><text fill="#000000" font-family="sans-serif" font-size="20.8" lengthAdjust="spacingAndGlyphs" textLength="243.2" x="986.4" y="574.2688">Register token response</text><path d="M896,605.8563 L995.2,605.8563 L995.2,617.0563 L979.2,633.0563 L896,633.0563 L896,605.8563 " fill="#EEEEEE" style="stroke: #000000; stroke-width: 1.6;"/><rect fill="none" height="145.4188" style="stroke: #000000; stroke-width: 3.2;" width="992.8" x="896" y="605.8563"/><text fill="#000000" font-family="sans-serif" font-size="20.8" font-weight="bold" lengthAdjust="spacingAndGlyphs" textLength="27.2" x="920" y="627.5656">alt</text><text fill="#000000" font-family="sans-serif" font-size="17.6" font-weight="bold" lengthAdjust="spacingAndGlyphs" textLength="422.4" x="1019.2" y="626.0719">[if uncookied customer, assume credit class A]</text><polygon fill="#A80036" points="1800.8,661.25,1816.8,667.65,1800.8,674.05,1807.2,667.65" style="stroke: #A80036; stroke-width: 1.6;"/><line style="stroke: #A80036; stroke-width: 1.6;" x1="959.2" x2="1810.4" y1="667.65" y2="667.65"/><a href="POST" target="_top" xlink:actuate="onRequest" xlink:show="new" xlink:title="POST" xlink:type="simple"><text fill="#0000FF" font-family="sans-serif" font-size="20.8" lengthAdjust="spacingAndGlyphs" text-decoration="underline" textLength="51.2" x="970.4" y="660.0625">POST</text></a><text fill="#000000" font-family="sans-serif" font-size="20.8" lengthAdjust="spacingAndGlyphs" textLength="657.6" x="1028" y="660.0625">/commerce/v3/profiles/{profileId}/credit-profiles (creditClass A)</text><line style="stroke: #000000; stroke-width: 1.6; stroke-dasharray: 2.0,2.0;" x1="896" x2="1888.8" y1="682.05" y2="682.05"/><text fill="#000000" font-family="sans-serif" font-size="17.6" font-weight="bold" lengthAdjust="spacingAndGlyphs" textLength="440" x="904" y="699.0656">[cookied customer, use credit class from cookie]</text><polygon fill="#A80036" points="1800.8,732.075,1816.8,738.475,1800.8,744.875,1807.2,738.475" style="stroke: #A80036; stroke-width: 1.6;"/><line style="stroke: #A80036; stroke-width: 1.6;" x1="959.2" x2="1810.4" y1="738.475" y2="738.475"/><a href="POST" target="_top" xlink:actuate="onRequest" xlink:show="new" xlink:title="POST" xlink:type="simple"><text fill="#0000FF" font-family="sans-serif" font-size="20.8" lengthAdjust="spacingAndGlyphs" text-decoration="underline" textLength="51.2" x="970.4" y="730.8875">POST</text></a><text fill="#000000" font-family="sans-serif" font-size="20.8" lengthAdjust="spacingAndGlyphs" textLength="764.8" x="1028" y="730.8875">/commerce/v3/profiles/{profileId}/credit-profiles (creditClass from cookie)</text><polygon fill="#A80036" points="1800.8,790.1719,1816.8,796.5719,1800.8,802.9719,1807.2,796.5719" style="stroke: #A80036; stroke-width: 1.6;"/><line style="stroke: #A80036; stroke-width: 1.6;" x1="959.2" x2="1810.4" y1="796.5719" y2="796.5719"/><a href="POST" target="_top" xlink:actuate="onRequest" xlink:show="new" xlink:title="POST" xlink:type="simple"><text fill="#0000FF" font-family="sans-serif" font-size="20.8" lengthAdjust="spacingAndGlyphs" text-decoration="underline" textLength="51.2" x="970.4" y="788.9844">POST</text></a><text fill="#000000" font-family="sans-serif" font-size="20.8" lengthAdjust="spacingAndGlyphs" textLength="449.6" x="1028" y="788.9844">/commerce/v3/profiles/{profileId}/accounts</text><polygon fill="#A80036" points="2492,837.0688,2508,843.4688,2492,849.8688,2498.4,843.4688" style="stroke: #A80036; stroke-width: 1.6;"/><line style="stroke: #A80036; stroke-width: 1.6;" x1="1820" x2="2501.6" y1="843.4688" y2="843.4688"/><a href="POST" target="_top" xlink:actuate="onRequest" xlink:show="new" xlink:title="POST" xlink:type="simple"><text fill="#0000FF" font-family="sans-serif" font-size="20.8" lengthAdjust="spacingAndGlyphs" text-decoration="underline" textLength="51.2" x="1831.2" y="835.8813">POST</text></a><text fill="#000000" font-family="sans-serif" font-size="20.8" lengthAdjust="spacingAndGlyphs" textLength="505.6" x="1888.8" y="835.8813">/commerce/v3/profiles/{profileId}/credit-profiles</text><a href="https://bitbucket.service.edp.t-mobile.com/projects/EITCODEDOC/repos/flow-documentation/browse/swagger/ce.dsg.dcp/v3.1/Profile_Swagger.json" target="_top" xlink:actuate="onRequest" xlink:show="new" xlink:title="https://bitbucket.service.edp.t-mobile.com/projects/EITCODEDOC/repos/flow-documentation/browse/swagger/ce.dsg.dcp/v3.1/Profile_Swagger.json" xlink:type="simple"><text fill="#0000FF" font-family="sans-serif" font-size="20.8" lengthAdjust="spacingAndGlyphs" text-decoration="underline" textLength="83.2" x="2400.8" y="835.8813">swagger</text></a><polygon fill="#A80036" points="2492,883.9656,2508,890.3656,2492,896.7656,2498.4,890.3656" style="stroke: #A80036; stroke-width: 1.6;"/><line style="stroke: #A80036; stroke-width: 1.6;" x1="1820" x2="2501.6" y1="890.3656" y2="890.3656"/><a href="POST" target="_top" xlink:actuate="onRequest" xlink:show="new" xlink:title="POST" xlink:type="simple"><text fill="#0000FF" font-family="sans-serif" font-size="20.8" lengthAdjust="spacingAndGlyphs" text-decoration="underline" textLength="51.2" x="1831.2" y="882.7781">POST</text></a><text fill="#000000" font-family="sans-serif" font-size="20.8" lengthAdjust="spacingAndGlyphs" textLength="449.6" x="1888.8" y="882.7781">/commerce/v3/profiles/{profileId}/accounts</text><a href="https://bitbucket.service.edp.t-mobile.com/projects/EITCODEDOC/repos/flow-documentation/browse/swagger/ce.dsg.dcp/v3.1/Profile_Swagger.json" target="_top" xlink:actuate="onRequest" xlink:show="new" xlink:title="https://bitbucket.service.edp.t-mobile.com/projects/EITCODEDOC/repos/flow-documentation/browse/swagger/ce.dsg.dcp/v3.1/Profile_Swagger.json" xlink:type="simple"><text fill="#0000FF" font-family="sans-serif" font-size="20.8" lengthAdjust="spacingAndGlyphs" text-decoration="underline" textLength="83.2" x="2344.8" y="882.7781">swagger</text></a><polygon fill="#A80036" points="1837.6,930.8625,1821.6,937.2625,1837.6,943.6625,1831.2,937.2625" style="stroke: #A80036; stroke-width: 1.6;"/><line style="stroke: #A80036; stroke-width: 1.6; stroke-dasharray: 2.0,2.0;" x1="1828" x2="2509.6" y1="937.2625" y2="937.2625"/><text fill="#000000" font-family="sans-serif" font-size="20.8" lengthAdjust="spacingAndGlyphs" textLength="230.4" x="1847.2" y="929.675">Credit profile response</text><polygon fill="#A80036" points="1837.6,977.7594,1821.6,984.1594,1837.6,990.5594,1831.2,984.1594" style="stroke: #A80036; stroke-width: 1.6;"/><line style="stroke: #A80036; stroke-width: 1.6; stroke-dasharray: 2.0,2.0;" x1="1828" x2="2509.6" y1="984.1594" y2="984.1594"/><text fill="#000000" font-family="sans-serif" font-size="20.8" lengthAdjust="spacingAndGlyphs" textLength="192" x="1847.2" y="976.5719">Accounts response</text><polygon fill="#A80036" points="976.8,1024.6563,960.8,1031.0563,976.8,1037.4563,970.4,1031.0563" style="stroke: #A80036; stroke-width: 1.6;"/><line style="stroke: #A80036; stroke-width: 1.6; stroke-dasharray: 2.0,2.0;" x1="967.2" x2="1818.4" y1="1031.0563" y2="1031.0563"/><text fill="#000000" font-family="sans-serif" font-size="20.8" lengthAdjust="spacingAndGlyphs" textLength="230.4" x="986.4" y="1023.4688">Credit profile response</text><polygon fill="#A80036" points="976.8,1071.5531,960.8,1077.9531,976.8,1084.3531,970.4,1077.9531" style="stroke: #A80036; stroke-width: 1.6;"/><line style="stroke: #A80036; stroke-width: 1.6; stroke-dasharray: 2.0,2.0;" x1="967.2" x2="1818.4" y1="1077.9531" y2="1077.9531"/><text fill="#000000" font-family="sans-serif" font-size="20.8" lengthAdjust="spacingAndGlyphs" textLength="192" x="986.4" y="1070.3656">Accounts response</text><polygon fill="#A80036" points="1800.8,1118.45,1816.8,1124.85,1800.8,1131.25,1807.2,1124.85" style="stroke: #A80036; stroke-width: 1.6;"/><line style="stroke: #A80036; stroke-width: 1.6;" x1="959.2" x2="1810.4" y1="1124.85" y2="1124.85"/><a href="POST" target="_top" xlink:actuate="onRequest" xlink:show="new" xlink:title="POST" xlink:type="simple"><text fill="#0000FF" font-family="sans-serif" font-size="20.8" lengthAdjust="spacingAndGlyphs" text-decoration="underline" textLength="51.2" x="970.4" y="1117.2625">POST</text></a><text fill="#000000" font-family="sans-serif" font-size="20.8" lengthAdjust="spacingAndGlyphs" textLength="251.2" x="1028" y="1117.2625">/commerce/v3/products</text><polygon fill="#A80036" points="2492,1165.3469,2508,1171.7469,2492,1178.1469,2498.4,1171.7469" style="stroke: #A80036; stroke-width: 1.6;"/><line style="stroke: #A80036; stroke-width: 1.6;" x1="1820" x2="2501.6" y1="1171.7469" y2="1171.7469"/><a href="POST" target="_top" xlink:actuate="onRequest" xlink:show="new" xlink:title="POST" xlink:type="simple"><text fill="#0000FF" font-family="sans-serif" font-size="20.8" lengthAdjust="spacingAndGlyphs" text-decoration="underline" textLength="51.2" x="1831.2" y="1164.1594">POST</text></a><text fill="#000000" font-family="sans-serif" font-size="20.8" lengthAdjust="spacingAndGlyphs" textLength="251.2" x="1888.8" y="1164.1594">/commerce/v3/products</text><a href="https://bitbucket.service.edp.t-mobile.com/projects/EITCODEDOC/repos/flow-documentation/browse/swagger/ce.dsg.dcp/v3.1/Products_Swagger.json" target="_top" xlink:actuate="onRequest" xlink:show="new" xlink:title="https://bitbucket.service.edp.t-mobile.com/projects/EITCODEDOC/repos/flow-documentation/browse/swagger/ce.dsg.dcp/v3.1/Products_Swagger.json" xlink:type="simple"><text fill="#0000FF" font-family="sans-serif" font-size="20.8" lengthAdjust="spacingAndGlyphs" text-decoration="underline" textLength="83.2" x="2146.4" y="1164.1594">swagger</text></a><polygon fill="#A80036" points="1837.6,1212.2438,1821.6,1218.6438,1837.6,1225.0438,1831.2,1218.6438" style="stroke: #A80036; stroke-width: 1.6;"/><line style="stroke: #A80036; stroke-width: 1.6; stroke-dasharray: 2.0,2.0;" x1="1828" x2="2509.6" y1="1218.6438" y2="1218.6438"/><text fill="#000000" font-family="sans-serif" font-size="20.8" lengthAdjust="spacingAndGlyphs" textLength="219.2" x="1847.2" y="1211.0563">V3 products response</text><polygon fill="#A80036" points="976.8,1259.1406,960.8,1265.5406,976.8,1271.9406,970.4,1265.5406" style="stroke: #A80036; stroke-width: 1.6;"/><line style="stroke: #A80036; stroke-width: 1.6; stroke-dasharray: 2.0,2.0;" x1="967.2" x2="1818.4" y1="1265.5406" y2="1265.5406"/><text fill="#000000" font-family="sans-serif" font-size="20.8" lengthAdjust="spacingAndGlyphs" textLength="219.2" x="986.4" y="1257.9531">V3 products response</text><polygon fill="#A80036" points="639.2,1330.5344,623.2,1336.9344,639.2,1343.3344,632.8,1336.9344" style="stroke: #A80036; stroke-width: 1.6;"/><line style="stroke: #A80036; stroke-width: 1.6; stroke-dasharray: 2.0,2.0;" x1="629.6" x2="949.6" y1="1336.9344" y2="1336.9344"/><text fill="#000000" font-family="sans-serif" font-size="20.8" lengthAdjust="spacingAndGlyphs" textLength="240" x="648.8" y="1304.85">/cell-phones html page</text><text fill="#000000" font-family="sans-serif" font-size="20.8" lengthAdjust="spacingAndGlyphs" textLength="84.8" x="655.2" y="1329.3469">returned</text><polygon fill="#A80036" points="602.4,1377.4313,618.4,1383.8313,602.4,1390.2313,608.8,1383.8313" style="stroke: #A80036; stroke-width: 1.6;"/><line style="stroke: #A80036; stroke-width: 1.6;" x1="42.4" x2="612" y1="1383.8313" y2="1383.8313"/><text fill="#000000" font-family="sans-serif" font-size="20.8" lengthAdjust="spacingAndGlyphs" textLength="481.6" x="53.6" y="1376.2438">Clicks on a phone tile on PLP to navigate to PDP</text><line style="stroke: #A80036; stroke-width: 1.6;" x1="621.6" x2="688.8" y1="1455.225" y2="1455.225"/><line style="stroke: #A80036; stroke-width: 1.6;" x1="688.8" x2="688.8" y1="1455.225" y2="1476.025"/><line style="stroke: #A80036; stroke-width: 1.6;" x1="623.2" x2="688.8" y1="1476.025" y2="1476.025"/><polygon fill="#A80036" points="639.2,1469.625,623.2,1476.025,639.2,1482.425,632.8,1476.025" style="stroke: #A80036; stroke-width: 1.6;"/><text fill="#000000" font-family="sans-serif" font-size="20.8" lengthAdjust="spacingAndGlyphs" textLength="163.2" x="632.8" y="1423.1406">Route change to</text><text fill="#000000" font-family="sans-serif" font-size="20.8" lengthAdjust="spacingAndGlyphs" textLength="307.2" x="632.8" y="1447.6375">/cell-phone/apple-iphone-11</text><polygon fill="#A80036" points="924,1516.5219,940,1522.9219,924,1529.3219,930.4,1522.9219" style="stroke: #A80036; stroke-width: 1.6;"/><line style="stroke: #A80036; stroke-width: 1.6;" x1="621.6" x2="933.6" y1="1522.9219" y2="1522.9219"/><a href="POST" target="_top" xlink:actuate="onRequest" xlink:show="new" xlink:title="POST" xlink:type="simple"><text fill="#0000FF" font-family="sans-serif" font-size="20.8" lengthAdjust="spacingAndGlyphs" text-decoration="underline" textLength="51.2" x="632.8" y="1515.3344">POST</text></a><text fill="#000000" font-family="sans-serif" font-size="20.8" lengthAdjust="spacingAndGlyphs" textLength="206.4" x="690.4" y="1515.3344">/api/product-family</text><polygon fill="#A80036" points="1800.8,1563.4188,1816.8,1569.8188,1800.8,1576.2188,1807.2,1569.8188" style="stroke: #A80036; stroke-width: 1.6;"/><line style="stroke: #A80036; stroke-width: 1.6;" x1="959.2" x2="1810.4" y1="1569.8188" y2="1569.8188"/><a href="POST" target="_top" xlink:actuate="onRequest" xlink:show="new" xlink:title="POST" xlink:type="simple"><text fill="#0000FF" font-family="sans-serif" font-size="20.8" lengthAdjust="spacingAndGlyphs" text-decoration="underline" textLength="51.2" x="970.4" y="1562.2313">POST</text></a><text fill="#000000" font-family="sans-serif" font-size="20.8" lengthAdjust="spacingAndGlyphs" textLength="251.2" x="1028" y="1562.2313">/commerce/v3/products</text><polygon fill="#A80036" points="2492,1610.3156,2508,1616.7156,2492,1623.1156,2498.4,1616.7156" style="stroke: #A80036; stroke-width: 1.6;"/><line style="stroke: #A80036; stroke-width: 1.6;" x1="1820" x2="2501.6" y1="1616.7156" y2="1616.7156"/><a href="POST" target="_top" xlink:actuate="onRequest" xlink:show="new" xlink:title="POST" xlink:type="simple"><text fill="#0000FF" font-family="sans-serif" font-size="20.8" lengthAdjust="spacingAndGlyphs" text-decoration="underline" textLength="51.2" x="1831.2" y="1609.1281">POST</text></a><text fill="#000000" font-family="sans-serif" font-size="20.8" lengthAdjust="spacingAndGlyphs" textLength="251.2" x="1888.8" y="1609.1281">/commerce/v3/products</text><a href="https://bitbucket.service.edp.t-mobile.com/projects/EITCODEDOC/repos/flow-documentation/browse/swagger/ce.dsg.dcp/v3.1/Products_Swagger.json" target="_top" xlink:actuate="onRequest" xlink:show="new" xlink:title="https://bitbucket.service.edp.t-mobile.com/projects/EITCODEDOC/repos/flow-documentation/browse/swagger/ce.dsg.dcp/v3.1/Products_Swagger.json" xlink:type="simple"><text fill="#0000FF" font-family="sans-serif" font-size="20.8" lengthAdjust="spacingAndGlyphs" text-decoration="underline" textLength="83.2" x="2146.4" y="1609.1281">swagger</text></a><polygon fill="#A80036" points="1837.6,1657.2125,1821.6,1663.6125,1837.6,1670.0125,1831.2,1663.6125" style="stroke: #A80036; stroke-width: 1.6;"/><line style="stroke: #A80036; stroke-width: 1.6; stroke-dasharray: 2.0,2.0;" x1="1828" x2="2509.6" y1="1663.6125" y2="1663.6125"/><text fill="#000000" font-family="sans-serif" font-size="20.8" lengthAdjust="spacingAndGlyphs" textLength="208" x="1847.2" y="1656.025">V3 product response</text><polygon fill="#A80036" points="976.8,1704.1094,960.8,1710.5094,976.8,1716.9094,970.4,1710.5094" style="stroke: #A80036; stroke-width: 1.6;"/><line style="stroke: #A80036; stroke-width: 1.6; stroke-dasharray: 2.0,2.0;" x1="967.2" x2="1818.4" y1="1710.5094" y2="1710.5094"/><text fill="#000000" font-family="sans-serif" font-size="20.8" lengthAdjust="spacingAndGlyphs" textLength="208" x="986.4" y="1702.9219">V3 product response</text><path d="M896,1734.5094 L995.2,1734.5094 L995.2,1745.7094 L979.2,1761.7094 L896,1761.7094 L896,1734.5094 " fill="#EEEEEE" style="stroke: #000000; stroke-width: 1.6;"/><rect fill="none" height="121.4906" style="stroke: #000000; stroke-width: 3.2;" width="608" x="896" y="1734.5094"/><text fill="#000000" font-family="sans-serif" font-size="20.8" font-weight="bold" lengthAdjust="spacingAndGlyphs" textLength="27.2" x="920" y="1756.2188">alt</text><text fill="#000000" font-family="sans-serif" font-size="17.6" font-weight="bold" lengthAdjust="spacingAndGlyphs" textLength="193.6" x="1019.2" y="1754.725">[if AUTHENTICATED]</text><polygon fill="#A80036" points="1432.8,1789.9031,1448.8,1796.3031,1432.8,1802.7031,1439.2,1796.3031" style="stroke: #A80036; stroke-width: 1.6;"/><line style="stroke: #A80036; stroke-width: 1.6; stroke-dasharray: 2.0,2.0;" x1="959.2" x2="1442.4" y1="1796.3031" y2="1796.3031"/><a href="POST" target="_top" xlink:actuate="onRequest" xlink:show="new" xlink:title="POST" xlink:type="simple"><text fill="#0000FF" font-family="sans-serif" font-size="20.8" lengthAdjust="spacingAndGlyphs" text-decoration="underline" textLength="51.2" x="970.4" y="1788.7156">POST</text></a><text fill="#000000" font-family="sans-serif" font-size="20.8" lengthAdjust="spacingAndGlyphs" textLength="307.2" x="1028" y="1788.7156">EOS /aal/v1/eligibility request</text><a href="https://bitbucket.corporate.t-mobile.com/projects/EOS/repos/eos-swagger-definitions/browse/eos-aal-eligibility-api.yaml" target="_top" xlink:actuate="onRequest" xlink:show="new" xlink:title="https://bitbucket.corporate.t-mobile.com/projects/EOS/repos/eos-swagger-definitions/browse/eos-aal-eligibility-api.yaml" xlink:type="simple"><text fill="#0000FF" font-family="sans-serif" font-size="20.8" lengthAdjust="spacingAndGlyphs" text-decoration="underline" textLength="83.2" x="1341.6" y="1788.7156">swagger</text></a><polygon fill="#A80036" points="976.8,1836.8,960.8,1843.2,976.8,1849.6,970.4,1843.2" style="stroke: #A80036; stroke-width: 1.6;"/><line style="stroke: #A80036; stroke-width: 1.6; stroke-dasharray: 2.0,2.0;" x1="967.2" x2="1450.4" y1="1843.2" y2="1843.2"/><a href="POST" target="_top" xlink:actuate="onRequest" xlink:show="new" xlink:title="POST" xlink:type="simple"><text fill="#0000FF" font-family="sans-serif" font-size="20.8" lengthAdjust="spacingAndGlyphs" text-decoration="underline" textLength="51.2" x="986.4" y="1835.6125">POST</text></a><text fill="#000000" font-family="sans-serif" font-size="20.8" lengthAdjust="spacingAndGlyphs" textLength="323.2" x="1044" y="1835.6125">EOS /aal/v1/eligibility response</text><polygon fill="#A80036" points="639.2,1894.8969,623.2,1901.2969,639.2,1907.6969,632.8,1901.2969" style="stroke: #A80036; stroke-width: 1.6;"/><line style="stroke: #A80036; stroke-width: 1.6; stroke-dasharray: 2.0,2.0;" x1="629.6" x2="941.6" y1="1901.2969" y2="1901.2969"/><text fill="#000000" font-family="sans-serif" font-size="20.8" lengthAdjust="spacingAndGlyphs" textLength="208" x="648.8" y="1893.7094">V3 product response</text><line style="stroke: #A80036; stroke-width: 1.6; stroke-dasharray: 2.0,2.0;" x1="621.6" x2="688.8" y1="1980.6906" y2="1980.6906"/><line style="stroke: #A80036; stroke-width: 1.6; stroke-dasharray: 2.0,2.0;" x1="688.8" x2="688.8" y1="1980.6906" y2="2001.4906"/><line style="stroke: #A80036; stroke-width: 1.6; stroke-dasharray: 2.0,2.0;" x1="613.6" x2="688.8" y1="2001.4906" y2="2001.4906"/><polygon fill="#A80036" points="629.6,1995.0906,613.6,2001.4906,629.6,2007.8906,623.2,2001.4906" style="stroke: #A80036; stroke-width: 1.6;"/><text fill="#000000" font-family="sans-serif" font-size="20.8" lengthAdjust="spacingAndGlyphs" textLength="307.2" x="632.8" y="1948.6063">/cell-phone/apple-iphone-11</text><text fill="#000000" font-family="sans-serif" font-size="20.8" lengthAdjust="spacingAndGlyphs" textLength="195.2" x="639.2" y="1973.1031">html page rendered</text><text fill="#888888" font-family="sans-serif" font-size="51.2" lengthAdjust="spacingAndGlyphs" textLength="449.6" x="1098" y="54.3">PLP/PDP Browsing</text><!--MD5=[a3ac3a40ec1731f4a1c9287d7b526a6c]
@startuml TOS-PLP-PDP
actor User
participant Browser
participant Hapi
participant EOS
participant Apigee
participant DCD
participant MW

center header
<font size=32>PLP/PDP Browsing</font>
endheader

User -> Browser: Navigates to https://www.t-mobile.com/cell-phones

Activate Hapi
Browser -> Hapi: /cell-phones
Hapi -> Apigee: [[POST]] /oauth2/v4/tokens
Hapi <- - Apigee: returns JWT token
Hapi -> Apigee: [[POST]] /commerce/v3/tokens
Apigee -> DCD: [[POST]] /commerce/v3/tokens [[https://bitbucket.service.edp.t-mobile.com/projects/EITCODEDOC/repos/flow-documentation/browse/swagger/ce.dsg.dcp/v3.1/Authentication_Swagger.json swagger]]
Apigee <- - DCD: Register token response
Hapi <- - Apigee: Register token response
alt if uncookied customer, assume credit class A
Hapi -> Apigee: [[POST]] /commerce/v3/profiles/{profileId}/credit-profiles (creditClass A)
else cookied customer, use credit class from cookie
Hapi -> Apigee: [[POST]] /commerce/v3/profiles/{profileId}/credit-profiles (creditClass from cookie)
end
Hapi -> Apigee: [[POST]] /commerce/v3/profiles/{profileId}/accounts
Apigee -> DCD: [[POST]] /commerce/v3/profiles/{profileId}/credit-profiles [[https://bitbucket.service.edp.t-mobile.com/projects/EITCODEDOC/repos/flow-documentation/browse/swagger/ce.dsg.dcp/v3.1/Profile_Swagger.json swagger]]
Apigee -> DCD: [[POST]] /commerce/v3/profiles/{profileId}/accounts [[https://bitbucket.service.edp.t-mobile.com/projects/EITCODEDOC/repos/flow-documentation/browse/swagger/ce.dsg.dcp/v3.1/Profile_Swagger.json swagger]]
Apigee <- - DCD: Credit profile response
Apigee <- - DCD: Accounts response
Hapi <- - Apigee: Credit profile response
Hapi <- - Apigee: Accounts response
Hapi -> Apigee: [[POST]] /commerce/v3/products
Apigee -> DCD: [[POST]] /commerce/v3/products [[https://bitbucket.service.edp.t-mobile.com/projects/EITCODEDOC/repos/flow-documentation/browse/swagger/ce.dsg.dcp/v3.1/Products_Swagger.json swagger]]
Apigee <- - DCD: V3 products response
Hapi <- - Apigee: V3 products response
Browser <- - Hapi: /cell-phones html page\n returned
Deactivate Hapi

User -> Browser: Clicks on a phone tile on PLP to navigate to PDP

Activate Hapi
Browser -> Browser: Route change to \n/cell-phone/apple-iphone-11
Browser -> Hapi: [[POST]] /api/product-family
Hapi -> Apigee: [[POST]] /commerce/v3/products
Apigee -> DCD: [[POST]] /commerce/v3/products [[https://bitbucket.service.edp.t-mobile.com/projects/EITCODEDOC/repos/flow-documentation/browse/swagger/ce.dsg.dcp/v3.1/Products_Swagger.json swagger]]
Apigee <- - DCD: V3 product response
Hapi <- - Apigee: V3 product response
alt if AUTHENTICATED
Hapi - -> EOS: [[POST]] EOS /aal/v1/eligibility request [[https://bitbucket.corporate.t-mobile.com/projects/EOS/repos/eos-swagger-definitions/browse/eos-aal-eligibility-api.yaml swagger]]
Hapi <- - EOS: [[POST]] EOS /aal/v1/eligibility response
end
Browser <- - Hapi: V3 product response
Browser - -> Browser: /cell-phone/apple-iphone-11\n html page rendered
Deactivate Hapi

@enduml

PlantUML version 1.2019.10(Fri Sep 13 13:53:03 PDT 2019)
(GPL source distribution)
Java Runtime: OpenJDK Runtime Environment
JVM: OpenJDK 64-Bit Server VM
Java Version: 1.8.0_212-release-1586-b4
Operating System: Mac OS X
Default Encoding: UTF-8
Language: en
Country: US
--></g></svg>